data_start,3537
battery_voltage,4.24
120,336
121,336
120,304
120,432
120,304
121,272
120,352
120,336
121,400
120,288
121,320
120,304
120,368
120,432
121,336
122,384
118,320
120,384
120,400
121,400
120,352
120,336
120,352
121,400
120,336
120,400
120,384
121,384
121,416
120,352
120,400
121,368
121,384
120,464
121,320
120,352
120,288
122,352
120,368
120,368
121,384
121,352
120,288
121,384
120,288
120,400
121,272
121,352
120,400
121,336
120,288
121,288
121,368
120,416
120,256
121,304
121,336
120,400
120,448
121,352
121,336
120,352
121,352
120,416
120,288
122,320
120,320
120,368
121,400
120,272
121,304
120,256
120,352
123,480
119,384
120,368
120,416
122,416
120,448
120,320
121,304
120,336
121,400
121,400
120,400
121,336
120,368
121,352
121,464
120,336
121,288
120,320
121,400
121,400
120,320
120,368
121,416
121,304
122,400
118,336
121,288
121,320
120,352
121,432
120,288
120,288
121,384
120,400
121,416
120,368
120,352
121,352
121,352
120,416
120,336
121,336
121,416
120,336
120,464
120,288
122,368
120,416
120,384
120,352
122,384
120,352
120,352
121,416
120,400
121,352
121,384
120,304
120,400
121,432
121,352
120,352
120,336
121,368
120,432
121,288
120,320
121,288
120,368
121,432
121,304
120,304
120,336
120,368
121,432
121,368
120,336
120,304
121,400
121,416
120,336
120,368
122,336
120,368
120,432
121,400
120,320
121,352
121,352
120,432
120,416
121,336
121,336
120,384
120,368
121,400
121,304
121,400
120,368
120,416
121,336
121,400
120,304
120,400
120,416
121,288
121,384
121,336
119,336
120,400
122,336
120,352
120,320
121,400
120,448
121,384
120,320
120,320
121,368
120,400
121,304
121,304
120,384
120,368
121,448
121,320
120,352
121,304
120,384
121,432
121,400
120,336
120,352
121,368
121,432
120,320
121,352
120,320
121,352
121,384
120,304
121,320
120,352
120,336
121,368
121,352
120,384
120,416
122,352
120,464
120,304
121,336
120,352
121,352
120,368
121,368
120,368
121,320
120,384
121,368
120,384
120,368
121,304
121,384
120,464
122,336
119,352
121,336
120,320
121,400
120,352
120,336
121,304
121,368
120,384
121,384
121,336
120,368
121,368
120,528
120,368
122,336
120,336
121,352
120,464
120,304
121,352
120,304
121,368
120,496
121,368
121,352
120,336
120,352
121,400
121,336
120,384
120,320
121,352
120,416
121,336
121,288
120,400
120,400
121,464
121,288
120,368
121,304
120,352
121,448
121,368
120,368
120,336
121,368
121,384
120,288
121,320
120,336
120,368
122,432
120,416
120,336
121,368
121,368
120,464
121,336
120,256
120,304
121,400
121,464
120,352
120,352
121,352
121,368
120,416
121,320
120,288
121,368
121,320
120,480
120,272
120,304
122,352
120,352
120,464
121,320
120,288
121,352
122,336
119,448
121,400
120,352
121,320
121,336
120,432
120,400
120,352
122,288
120,368
120,448
121,304
120,352
121,384
121,400
120,480
120,320
122,320
120,400
120,352
120,432
121,336
120,384
120,384
121,352
120,432
121,352
121,304
120,336
120,336
121,448
121,272
120,336
120,320
121,384
121,432
120,272
121,352
120,304
120,384
121,464
121,384
120,368
121,352
120,400
121,496
121,368
120,352
120,304
121,368
121,448
120,352
121,352
120,352
121,384
121,400
120,304
121,352
120,352
120,400
122,432
120,352
120,304
120,352
121,384
120,400
121,336
120,320
120,352
122,400
120,448
120,368
120,416
121,272
121,384
120,432
120,288
121,352
120,384
121,384
120,400
121,368
122,304
118,336
122,384
120,384
121,288
120,336
120,336
121,368
121,384
120,368
120,384
122,320
120,384
120,432
121,368
120,336
121,336
120,400
120,384
120,352
121,336
120,368
120,384
120,384
120,432
121,336
120,352
120,416
121,464
121,352
120,368
121,304
120,352
120,448
121,320
121,368
120,288
120,384
122,416
120,320
120,320
120,304
121,416
121,464
120,352
121,288
120,400
121,368
121,432
120,400
120,336
121,304
121,400
121,464
120,336
120,320
121,384
121,400
120,272
120,352
120,384
121,304
121,384
120,432
120,320
120,384
121,320
120,368
121,480
120,400
120,336
121,336
120,352
120,448
120,304
121,336
120,352
120,384
121,432
120,368
121,336
120,288
121,400
122,384
119,304
121,400
120,320
120,352
121,336
121,368
121,384
120,336
120,416
121,432
121,368
121,336
120,320
120,352
121,384
121,336
120,320
120,336
121,400
121,448
120,320
121,368
120,416
120,336
122,416
120,320
120,320
121,384
120,368
121,400
120,288
121,368
120,352
121,368
121,464
120,352
120,336
120,352
122,384
120,416
120,336
120,304
121,384
121,368
120,432
120,384
120,352
122,400
120,400
120,368
120,352
121,368
121,352
120,368
120,368
120,352
121,352
120,336
120,384
120,448
120,368
120,304
120,416
120,416
120,464
121,352
120,304
120,304
120,352
121,336
120,336
120,336
120,320
121,336
120,368
120,320
120,320
121,272
120,416
120,432
120,336
121,368
122,384
119,320
120,432
121,368
120,352
121,352
120,304
120,464
120,288
121,368
120,352
120,352
120,352
121,288
121,320
120,336
120,400
120,464
121,320
120,336
120,336
120,368
121,400
121,352
120,288
122,304
119,400
120,400
121,368
120,304
120,384
120,368
121,448
121,320
120,352
120,352
121,384
120,384
121,304
120,304
120,352
121,368
120,384
121,352
120,352
120,432
121,336
120,400
120,352
120,320
121,272
120,400
120,480
120,336
121,352
121,416
120,400
120,336
120,368
121,336
120,320
120,400
121,400
120,368
121,336
120,368
121,352
120,464
121,336
120,368
120,288
120,336
121,464
121,368
120,320
120,336
120,368
122,448
120,320
120,304
121,336
120,352
121,496
120,352
120,336
120,288
121,368
120,352
121,368
120,288
120,288
121,304
120,352
120,368
120,400
121,368
120,400
120,448
121,320
121,336
120,368
120,336
120,464
121,304
120,368
120,368
120,368
120,384
122,352
119,400
120,288
120,384
120,400
120,320
120,336
120,368
120,400
121,448
120,320
120,336
119,320
121,352
120,416
120,288
120,272
122,400
120,400
120,432
120,384
120,320
121,320
120,384
120,400
122,304
119,352
121,336
120,368
120,480
121,352
120,368
120,368
121,400
121,480
120,336
120,320
120,320
120,336
122,432
120,384
120,352
120,304
121,432
121,368
120,320
120,336
120,336
121,432
120,480
121,384
120,304
120,288
121,368
120,432
120,368
120,368
121,400
121,336
120,384
120,336
121,304
120,288
120,368
120,400
120,352
121,336
119,336
120,368
121,368
120,352
120,368
120,320
120,352
121,464
120,352
120,368
120,304
121,384
120,432
120,304
120,336
121,336
119,432
120,352
120,416
121,400
121,400
120,416
120,416
120,336
121,416
120,304
120,368
120,352
121,352
120,320
120,368
120,400
121,400
121,304
120,384
120,320
120,336
121,432
120,320
121,352
120,384
120,384
121,400
120,304
120,304
121,368
121,336
120,416
120,336
120,368
121,336
119,352
120,432
120,384
120,352
121,384
120,416
120,432
120,320
121,336
120,336
120,400
120,448
120,352
120,336
120,352
120,352
120,384
121,288
120,416
120,336
120,416
121,400
120,368
120,352
120,304
121,384
120,400
120,320
121,352
120,304
121,416
120,432
120,352
120,368
120,288
120,432
120,368
120,448
121,320
120,352
121,368
119,464
120,336
120,336
120,384
121,432
119,384
120,352
120,352
121,352
120,432
120,400
120,336
121,400
120,320
120,336
120,368
121,320
120,336
120,352
120,400
120,400
122,336
120,352
120,336
122,448
119,432
120,336
121,384
120,352
120,384
121,448
120,336
120,240
120,416
121,416
120,416
121,320
119,336
121,400
120,352
120,368
120,288
120,352
121,368
120,400
121,384
120,304
121,384
120,320
121,320
120,432
120,336
121,320
120,320
120,384
121,464
120,368
121,352
120,336
120,352
121,464
121,368
120,352
120,304
120,400
120,400
121,336
120,336
120,304
120,368
122,464
120,288
120,288
120,304
121,384
120,368
120,320
121,368
120,384
121,336
120,368
120,336
120,336
122,336
120,336
120,512
120,336
120,304
122,352
120,416
120,432
120,336
121,288
120,432
120,368
120,480
121,400
121,400
120,320
121,400
120,448
121,352
120,320
120,272
120,384
120,368
121,368
120,384
121,336
120,368
120,480
121,400
120,272
120,368
121,400
121,432
120,368
120,320
120,352
121,336
120,416
120,288
120,336
121,288
121,384
120,480
120,320
120,320
121,304
120,384
121,448
120,416
121,384
120,288
120,400
121,432
120,352
121,384
120,368
120,416
120,400
121,400
120,336
120,384
120,416
121,416
121,368
120,336
120,304
120,336
121,464
120,256
120,384
121,336
120,400
121,464
120,320
121,304
120,336
120,368
121,448
121,416
120,336
120,272
122,368
120,320
120,368
121,304
120,336
121,368
120,464
121,336
120,384
121,368
121,352
120,480
121,368
120,304
121,336
121,368
120,384
120,352
121,320
120,336
120,368
121,400
120,352
121,336
120,368
121,400
120,448
120,320
121,368
120,352
121,368
120,432
121,288
120,352
121,336
120,384
120,352
122,304
120,336
120,320
121,384
120,400
121,400
121,400
120,304
120,432
122,400
120,368
120,368
121,352
120,352
122,384
120,400
120,336
120,432
121,400
121,448
120,384
120,336
120,288
121,400
121,464
120,352
121,352
120,320
121,400
121,416
120,336
120,288
120,288
122,304
120,464
120,384
120,288
120,304
121,368
120,448
121,304
120,384
121,320
120,432
121,496
120,352
120,336
121,352
121,336
120,368
121,304
120,336
121,400
120,352
121,336
120,352
121,352
121,336
120,448
120,416
120,336
121,352
120,336
121,432
120,368
121,336
120,352
121,256
120,352
120,400
121,240
121,256
120,256
120,240
121,304
121,160
120,144
120,112
120,208
121,272
120,144
121,176
120,128
121,224
120,240
121,208
120,176
120,112
122,240
120,288
120,160
120,144
121,128
121,176
121,256
120,176
120,128
123,208
119,240
120,272
120,224
121,112
120,224
121,208
120,320
120,176
121,176
121,176
120,144
121,224
120,176
120,176
121,112
121,240
120,304
120,176
121,144
121,176
120,224
121,144
120,224
121,144
121,144
120,176
120,224
120,144
121,128
121,144
120,224
120,224
121,240
121,160
120,144
120,112
121,192
121,240
120,176
120,112
120,240
120,192
121,112
120,144
120,176
120,192
121,192
120,176
120,144
120,144
122,176
120,208
120,176
120,176
120,224
121,176
120,272
120,112
120,176
121,96
120,160
120,224
120,144
120,144
121,128
121,128
120,224
120,96
121,112
121,192
120,144
120,256
121,144
121,160
120,176
121,176
120,208
121,176
120,176
120,176
121,160
120,256
121,192
120,192
120,112
121,208
120,192
121,160
121,160
120,176
120,240
120,304
122,144
120,144
120,160
120,192
122,224
120,160
120,160
120,112
121,256
121,336
120,144
120,192
120,160
121,192
120,192
121,144
120,128
120,176
120,176
121,208
120,144
120,160
121,144
120,192
121,240
120,144
120,176
121,176
121,176
120,256
120,176
121,208
120,144
121,224
120,288
121,112
120,192
121,112
121,208
120,272
120,192
120,160
121,112
120,192
120,272
120,160
121,208
120,176
120,176
120,288
121,128
120,96
120,176
120,192
121,192
121,144
120,176
120,80
120,176
121,256
121,96
120,176
120,208
120,192
121,176
119,144
120,176
120,144
121,192
120,208
121,160
120,176
120,192
121,224
120,288
120,144
120,112
121,224
121,176
120,256
120,144
121,144
121,176
120,144
121,240
120,144
121,192
120,176
121,192
120,240
120,160
122,176
120,176
120,208
121,256
120,240
121,192
120,176
122,224
120,224
120,208
120,176
120,112
121,144
121,224
120,176
120,160
122,192
120,208
120,304
121,128
120,144
122,160
120,224
120,256
120,160
121,160
121,208
120,240
120,224
121,176
120,176
121,112
122,224
119,176
120,96
121,192
121,208
120,192
120,240
121,96
121,176
120,160
121,176
120,224
121,208
121,160
120,192
121,176
120,224
120,176
122,112
120,176
120,208
120,304
121,144
120,192
120,96
121,224
120,240
121,208
121,144
120,208
121,208
120,240
121,160
120,160
121,192
120,224
121,352
120,192
120,192
120,112
120,208
121,208
120,176
120,208
120,128
121,176
120,208
120,160
120,192
121,224
120,176
121,224
120,192
120,192
121,160
120,176
120,304
120,112
121,160
120,160
120,192
120,224
120,208
122,192
120,128
120,192
120,288
121,112
120,112
120,144
120,192
120,272
121,112
120,144
120,128
120,144
121,224
120,160
120,160
120,160
121,128
121,272
120,224
121,112
120,160
120,208
120,208
121,208
121,144
120,128
121,176
120,160
121,112
121,176
120,176
120,160
120,208
121,192
120,128
121,192
120,224
121,240
120,128
121,160
120,192
120,176
122,208
120,128
120,192
120,128
121,224
120,288
121,160
120,208
120,128
121,192
121,224
120,112
120,160
120,208
122,208
120,224
120,192
120,224
121,240
121,208
120,224
120,144
121,160
121,128
120,128
121,192
120,176
120,224
121,176
121,160
120,208
120,176
121,112
120,192
120,224
121,256
120,176
121,160
121,160
120,176
120,224
121,192
121,160
120,176
120,144
120,256
122,160
120,192
120,144
120,144
121,240
121,112
120,160
121,192
120,224
121,304
121,176
120,192
120,144
120,160
123,240
119,160
120,128
121,176
120,192
122,272
120,176
120,208
121,224
120,176
121,208
120,176
120,144
120,112
121,240
121,208
120,208
120,192
120,128
122,224
120,272
120,144
120,144
121,144
121,224
120,240
120,176
121,208
121,112
120,208
121,256
120,192
120,144
122,176
120,208
120,192
121,144
121,160
120,192
120,160
121,288
120,176
121,176
121,176
120,160
120,208
121,160
121,176
120,176
121,176
120,240
121,176
120,112
120,96
121,176
120,240
121,96
120,160
121,208
120,224
121,256
120,176
120,192
120,144
120,208
121,112
121,160
120,176
120,144
122,192
120,240
120,144
120,96
121,208
121,160
120,224
121,192
120,176
121,160
121,224
120,272
120,128
120,128
123,128
119,192
121,240
120,176
120,128
122,192
120,208
120,176
120,128
121,208
121,192
120,224
120,240
120,176
122,144
120,160
120,192
121,256
120,112
121,176
121,224
120,176
120,288
121,144
120,160
121,240
120,176
120,176
122,176
120,144
120,160
121,256
120,224
122,160
120,208
120,208
120,208
121,224
121,192
120,208
120,144
121,160
121,192
120,128
121,160
120,240
120,192
121,224
120,160
120,208
121,144
121,160
120,224
120,176
121,144
120,176
121,208
120,256
121,144
120,144
121,128
120,224
121,192
120,224
120,144
121,176
121,224
120,304
120,144
122,176
120,176
120,144
120,160
121,128
121,144
120,176
120,208
121,208
120,176
121,176
121,240
120,176
120,192
122,160
120,176
120,128
120,144
121,272
121,176
120,176
120,144
121,96
121,240
120,112
121,192
120,160
120,208
122,288
120,112
120,176
120,192
120,160
122,208
120,144
120,208
120,144
121,224
121,288
120,112
120,224
121,192
121,208
120,304
120,112
121,160
121,144
120,160
120,288
121,176
120,192
122,144
120,256
120,192
121,112
120,160
122,176
120,176
120,192
120,144
121,208
121,160
120,192
120,240
120,160
122,208
120,128
120,224
120,256
121,128
121,176
120,240
120,208
120,192
122,96
120,160
120,192
120,208
121,272
121,160
120,128
120,240
120,176
121,224
120,240
121,112
120,160
120,176
121,192
121,192
120,160
120,224
121,192
121,224
120,192
121,208
120,144
122,160
119,240
120,144
121,128
120,224
121,176
120,240
120,240
120,192
121,176
121,256
120,224
121,144
120,160
121,192
121,176
120,192
120,176
121,176
121,192
120,224
121,272
120,192
121,128
121,192
120,208
120,240
121,128
121,208
120,160
120,272
121,224
120,160
121,176
120,112
121,208
120,240
121,112
121,192
120,96
120,192
121,224
121,208
120,176
120,208
120,208
121,224
121,176
120,144
120,192
120,192
122,256
120,176
120,208
120,128
121,208
121,272
120,144
120,192
120,112
121,144
121,240
120,224
120,192
121,176
121,192
120,192
121,160
120,80
121,176
120,208
121,240
120,160
120,192
121,144
121,192
120,208
120,208
121,192
121,224
120,160
121,256
120,112
122,128
119,176
120,192
120,208
121,128
121,192
120,160
120,160
121,224
121,176
120,176
121,160
120,208
120,240
122,112
120,160
120,96
120,208
121,192
121,208
120,176
120,128
121,192
121,272
121,160
120,112
120,192
120,208
122,192
120,144
120,144
120,144
121,160
121,272
120,144
121,160
120,160
121,176
121,96
120,208
120,176
120,176
121,192
121,272
120,192
120,144
121,144
121,112
120,208
120,160
121,144
121,160
120,208
120,272
120,176
121,160
121,144
120,144
120,352
120,144
122,144
120,208
120,208
121,224
120,208
121,160
120,208
120,208
121,256
121,64
120,144
120,208
121,192
120,256
121,224
120,192
121,176
120,176
121,192
121,176
120,192
120,192
120,160
122,208
119,160
121,192
120,192
120,224
121,288
121,112
120,112
120,160
120,208
121,256
121,144
120,192
120,240
121,240
120,192
121,224
120,192
120,240
122,304
120,368
120,272
121,256
120,336
121,416
121,448
120,448
120,496
121,480
121,528
120,544
120,432
121,512
121,496
120,656
121,624
120,592
120,624
121,640
120,720
120,784
121,688
121,736
120,640
120,784
121,768
120,752
122,800
120,832
120,880
120,1024
122,880
120,928
120,912
120,944
121,1072
121,944
120,1008
120,992
121,1040
120,1168
121,1072
120,1104
121,1152
120,1216
121,1232
120,1168
120,1232
122,1248
120,1312
120,1312
121,1280
120,1312
121,1360
121,1408
120,1440
121,1392
120,1424
120,1456
121,1504
121,1552
120,1440
120,1584
122,1584
119,1616
121,1776
120,1728
120,1712
121,1728
121,1776
120,1888
120,1840
121,1872
120,1888
121,1872
120,2000
121,1904
120,2000
120,2096
121,2064
121,2192
120,2032
120,2144
121,2176
120,2240
122,2320
120,2272
120,2272
121,2304
120,2320
121,2432
120,2432
121,2416
120,2416
121,2432
121,2576
121,2480
120,2496
121,2464
120,2560
120,2608
121,2608
120,2608
121,2608
120,2672
121,2784
121,2608
120,2640
120,2656
121,2720
120,2736
121,2672
121,2704
120,2672
120,2720
120,2832
122,2640
120,2704
120,2736
120,2704
121,2704
121,2672
120,2656
121,2688
120,2720
121,2688
121,2608
120,2608
120,2544
121,2544
120,2672
120,2544
122,2528
120,2416
120,2448
121,2496
120,2368
122,2368
120,2256
120,2288
120,2304
121,2176
121,2192
120,2192
120,2192
120,2176
122,2000
119,2032
120,1952
120,1984
121,1984
120,1808
120,1840
120,1856
120,1792
121,1776
120,1712
120,1744
120,1616
120,1680
121,1600
121,1584
120,1504
120,1536
120,1472
121,1520
120,1408
120,1344
120,1296
120,1264
121,1312
122,1200
118,1184
120,1248
121,1216
121,1264
120,1120
120,1072
120,1104
120,1120
122,1040
120,976
120,944
120,960
121,976
121,928
120,960
120,848
120,800
121,896
121,880
120,864
121,816
120,768
120,848
121,784
121,704
120,768
120,720
121,704
120,768
121,672
120,688
121,576
120,656
120,704
121,656
120,576
120,560
121,608
120,608
121,480
120,528
120,496
120,528
120,528
121,560
120,480
120,512
120,464
120,496
121,432
120,432
120,432
120,432
121,496
121,400
120,432
120,448
120,416
121,432
120,368
120,368
120,304
120,336
121,384
120,352
120,320
120,272
121,352
121,320
120,272
121,304
120,304
120,304
122,352
120,240
121,240
120,256
120,288
121,336
121,224
120,288
120,224
123,208
118,224
121,224
120,176
121,208
120,224
121,208
121,144
120,192
120,128
121,160
120,224
121,48
121,112
120,112
120,224
121,320
121,112
120,176
121,208
120,176
120,208
121,176
121,144
120,80
121,224
120,320
120,144
121,176
121,128
120,224
120,224
121,96
121,144
121,208
120,176
120,176
121,176
120,160
121,176
120,224
121,224
120,208
120,160
122,208
120,176
120,256
120,80
121,160
121,224
120,192
121,224
120,144
120,144
122,160
120,208
120,256
120,112
121,144
121,176
120,208
121,192
120,144
120,176
121,144
121,224
120,288
120,144
121,112
120,176
121,176
121,304
120,160
120,144
121,144
121,208
120,176
121,112
120,128
120,160
121,208
120,240
120,160
122,160
118,192
121,192
120,144
120,176
120,128
120,128
122,176
120,256
120,192
120,64
121,144
120,208
120,256
120,144
120,144
121,144
121,208
120,240
120,192
120,144
121,144
120,176
121,192
120,208
122,96
119,144
121,176
121,256
120,144
121,176
120,128
120,160
122,240
120,208
120,176
120,160
121,192
121,240
120,176
121,176
120,128
120,208
122,224
120,144
120,128
121,192
120,224
121,192
120,176
121,128
120,208
120,224
121,208
121,144
120,144
120,160
120,192
121,192
120,112
120,96
120,64
120,192
122,224
120,192
120,160
120,144
120,192
122,224
120,176
120,112
120,144
120,256
121,224
120,224
120,160
120,208
120,192
121,208
120,160
120,160
120,176
121,192
120,224
120,112
121,176
120,144
121,176
121,288
120,160
120,192
121,192
121,208
120,304
120,112
121,112
120,160
121,224
121,288
120,96
120,144
121,224
120,256
121,240
121,144
120,128
121,144
120,240
122,128
120,128
120,192
120,80
121,176
121,256
120,160
120,176
120,176
121,176
120,224
120,80
120,192
120,96
122,192
120,176
120,224
120,160
120,176
121,224
120,192
120,128
120,160
121,144
121,192
120,176
120,144
120,144
120,160
121,176
120,208
120,176
121,176
120,176
122,176
120,288
120,144
121,160
120,224
121,176
121,192
120,96
120,160
120,144
122,208
120,256
120,128
121,144
120,192
121,240
121,288
120,144
121,176
120,192
120,144
121,208
121,192
120,144
120,224
120,224
121,192
120,112
121,176
120,224
120,176
121,240
120,144
120,192
121,128
120,224
121,304
120,128
120,176
120,176
121,192
121,192
120,192
120,160
121,192
120,192
121,224
120,192
120,160
121,128
120,208
120,240
120,160
121,144
120,192
121,192
121,176
120,96
120,144
121,32
121,176
120,240
121,128
120,144
120,144
121,208
121,240
120,176
120,144
120,160
122,224
120,208
120,208
121,176
122,112
119,240
121,224
120,192
120,176
121,128
120,160
122,224
120,144
121,176
120,192
120,208
122,208
120,160
120,160
120,208
120,192
121,144
121,128
120,176
120,160
121,208
120,272
121,176
121,208
120,144
120,176
121,208
121,176
120,192
120,208
121,176
120,240
121,112
121,176
120,128
120,160
121,224
121,176
120,176
121,80
120,208
120,240
122,176
120,208
120,160
121,192
120,208
121,144
121,160
121,96
120,224
120,208
120,128
121,176
121,208
120,176
120,256
120,176
121,144
120,176
120,160
120,224
121,144
120,144
120,96
120,192
120,368
121,144
120,160
120,128
120,160
121,256
121,144
120,112
120,112
120,176
120,256
121,224
121,144
120,192
120,160
120,224
123,176
119,144
120,208
121,144
120,224
121,144
121,144
120,208
120,144
120,224
121,192
121,208
120,160
120,208
121,208
120,176
121,192
121,176
120,160
121,256
120,208
120,144
121,160
121,176
120,192
120,80
121,192
121,144
120,176
121,240
120,208
120,192
121,192
121,208
120,208
120,144
120,160
121,144
121,176
120,176
121,112
120,192
121,144
121,144
120,192
120,176
121,160
120,128
121,160
121,240
120,208
120,160
121,160
121,192
120,192
121,144
120,192
120,192
121,192
121,240
120,160
120,192
121,176
120,160
121,256
120,176
120,176
120,112
120,208
122,272
120,128
120,208
120,192
120,208
121,240
121,144
120,128
120,192
120,192
122,240
120,192
120,208
120,208
121,192
120,240
120,176
120,208
121,176
120,128
120,256
121,224
120,160
121,160
121,256
120,256
120,192
121,160
121,176
120,192
121,272
120,160
120,176
121,112
121,240
120,208
120,160
121,176
120,128
121,176
121,224
120,160
120,176
121,208
121,224
121,240
120,176
120,144
121,256
121,208
120,240
121,176
120,192
120,176
121,192
121,256
121,144
120,176
120,160
120,176
121,208
121,144
120,176
120,160
120,160
121,256
120,128
121,128
120,144
120,240
121,304
121,160
120,144
120,192
120,176
121,304
121,176
120,224
121,208
120,208
120,192
122,144
120,208
120,144
121,240
120,208
121,192
121,160
120,208
120,192
120,224
121,176
120,144
120,160
121,144
120,224
121,128
122,128
119,112
120,128
121,240
121,160
120,176
120,176
120,176
121,304
121,176
120,176
121,144
120,208
120,288
121,160
121,176
120,96
120,224
120,208
121,160
121,128
120,224
120,160
121,240
120,160
121,160
120,224
120,176
120,192
121,176
120,112
120,144
120,144
121,208
121,208
120,112
120,192
120,224
121,256
121,192
120,176
120,208
120,176
120,176
122,176
120,144
120,144
121,192
120,272
121,96
121,112
120,144
120,208
120,288
121,160
121,208
120,176
120,176
121,288
120,176
121,176
121,176
120,176
120,192
121,224
121,128
120,144
121,192
120,272
120,192
122,128
120,192
120,192
121,224
120,160
122,144
120,96
120,160
121,240
120,192
120,160
122,160
120,224
121,192
120,80
120,160
120,160
121,192
121,272
120,144
121,160
120,96
120,112
122,176
120,144
120,64
121,192
120,240
121,208
121,176
120,208
121,96
120,176
121,256
121,192
120,160
121,176
120,176
120,176
122,144
120,160
121,112
120,160
121,320
120,176
121,160
120,160
120,176
121,192
120,176
121,144
120,160
120,208
120,176
120,144
121,144
120,176
121,144
120,256
120,96
121,144
121,192
120,192
120,224
121,112
121,176
120,176
121,176
120,208
120,208
121,160
121,112
120,240
120,304
121,240
121,160
121,192
120,176
120,256
121,144
121,144
120,176
121,208
120,224
120,144
121,112
121,192
121,160
120,304
120,128
121,128
121,128
120,224
120,272
121,224
120,128
122,144
119,224
121,192
120,160
120,192
122,144
120,240
120,176
121,176
120,208
121,176
121,160
120,240
120,176
120,160
121,144
121,208
120,224
121,160
120,176
120,160
122,224
120,240
121,144
120,176
120,208
121,176
120,256
121,144
120,144
120,176
121,192
121,272
120,144
121,192
120,176
120,144
122,224
120,112
120,176
120,128
120,176
122,288
120,128
120,224
120,160
121,176
121,240
120,160
121,208
120,96
120,144
121,192
121,160
120,176
120,192
120,160
121,272
120,176
120,96
120,80
121,192
120,256
120,160
121,160
120,208
120,192
121,288
120,144
120,240
121,160
120,160
121,272
120,128
120,112
120,112
121,208
121,272
120,176
120,160
121,112
120,208
121,224
123,144
118,192
121,160
120,192
120,240
122,192
120,128
120,80
120,192
121,224
121,176
120,128
121,160
120,160
120,208
121,128
121,112
120,112
121,176
120,288
120,144
122,160
120,192
120,224
121,256
120,176
121,176
121,208
120,208
120,240
121,80
120,128
121,160
120,160
121,192
120,192
121,160
120,208
120,192
121,288
120,144
120,208
122,192
120,224
120,208
120,160
121,112
121,160
120,112
120,240
121,128
120,112
121,192
121,192
120,256
120,144
121,176
121,176
120,208
121,272
120,160
120,176
121,176
121,224
120,176
121,144
120,80
120,176
122,160
120,304
120,176
121,224
120,128
121,192
120,272
121,192
120,160
120,192
121,160
121,208
120,112
120,112
120,112
123,176
119,192
120,112
121,80
120,176
121,144
121,240
120,96
120,176
121,240
121,208
120,176
121,192
120,160
120,144
121,176
121,240
120,208
120,176
121,144
120,208
121,144
121,128
120,128
120,144
121,192
121,192
120,192
121,144
120,144
120,176
121,288
121,176
120,128
120,192
120,176
122,240
120,160
120,224
120,192
120,256
121,192
121,176
120,160
120,176
121,192
121,272
120,160
120,160
120,176
120,176
122,240
120,192
120,160
120,160
120,176
121,256
121,208
120,192
120,192
120,192
121,224
120,160
121,176
120,240
120,176
121,272
121,208
120,144
120,192
120,208
121,256
121,176
120,144
120,128
120,176
121,176
121,208
120,144
120,112
121,144
120,304
121,144
121,112
120,176
120,192
120,320
120,144
121,144
121,176
120,240
120,240
120,176
121,192
121,112
120,208
120,192
121,112
120,160
121,160
120,144
121,288
120,176
120,144
121,80
121,224
120,288
120,144
122,208
119,128
121,208
120,240
120,208
120,208
120,176
121,144
120,224
120,144
121,192
120,192
121,192
121,304
120,192
120,192
120,160
121,176
120,208
121,208
120,80
120,144
121,176
121,256
120,208
120,144
121,160
121,208
120,176
120,112
121,160
120,96
121,192
120,240
121,208
120,160
120,80
121,208
121,224
120,176
120,176
120,176
121,192
120,224
120,160
121,144
120,128
121,176
120,224
121,128
120,112
120,192
121,144
120,208
120,176
121,112
120,208
121,176
120,224
120,160
120,112
121,96
121,144
120,240
120,176
121,176
120,128
121,176
120,208
121,192
120,144
120,176
121,160
121,336
120,144
120,192
121,160
121,208
120,208
120,208
120,128
120,96
121,160
121,256
120,144
120,192
120,112
121,208
121,224
120,112
120,144
120,144
121,144
120,288
121,160
120,128
120,192
121,240
121,304
120,128
120,192
121,128
120,208
121,224
120,192
120,224
121,208
120,256
121,320
120,224
120,240
121,288
121,272
120,432
121,320
120,288
120,320
121,400
120,368
120,320
121,400
120,352
121,432
120,592
120,416
120,464
121,496
121,496
120,624
120,480
120,432
121,560
121,528
120,544
120,528
121,544
120,576
121,624
120,672
121,640
120,544
120,624
122,672
120,736
120,656
120,640
120,640
122,704
120,768
120,736
121,704
120,752
121,752
121,832
120,816
120,784
120,816
121,832
121,832
120,800
120,752
120,800
121,880
120,912
121,848
120,800
122,880
119,880
121,992
120,928
121,912
120,912
120,944
121,1056
121,1008
120,1040
120,1008
120,1024
121,1088
121,1008
120,1008
120,1040
121,1104
121,1184
120,1008
121,1040
120,1056
120,1120
121,1216
121,1168
121,1216
122,1216
118,1152
121,1232
121,1168
120,1232
120,1184
121,1280
119,1296
122,1248
120,1200
120,1280
120,1328
121,1360
120,1264
121,1264
120,1344
120,1328
120,1424
121,1328
120,1360
121,1312
120,1408
120,1456
121,1392
121,1408
120,1408
120,1440
121,1408
121,1424
120,1424
120,1408
120,1408
121,1488
121,1424
120,1504
120,1392
121,1440
120,1520
121,1472
121,1456
120,1424
120,1504
120,1552
122,1440
120,1520
120,1456
120,1584
120,1584
121,1472
120,1552
120,1520
120,1552
120,1568
121,1536
120,1536
120,1488
120,1552
121,1584
120,1536
120,1488
120,1424
120,1552
121,1536
120,1488
120,1456
120,1520
120,1472
121,1520
120,1472
120,1392
120,1440
121,1456
120,1488
120,1472
120,1408
120,1392
122,1440
120,1520
120,1360
120,1376
120,1392
121,1424
120,1440
121,1376
120,1392
120,1392
121,1376
120,1456
121,1248
121,1296
120,1328
120,1312
120,1344
121,1280
121,1248
121,1232
120,1296
120,1328
121,1120
121,1168
120,1136
120,1216
121,1232
120,1168
121,1152
121,1072
120,1104
120,1152
122,1072
120,1088
120,1104
120,1072
121,1168
120,928
121,992
121,1008
120,976
120,1040
121,912
120,944
121,976
120,960
120,1008
121,944
120,848
121,928
120,864
121,912
120,800
120,816
121,864
120,880
120,896
120,800
121,784
120,720
121,800
120,848
120,688
121,688
120,704
121,720
120,784
120,672
121,688
121,672
120,704
121,640
120,624
120,656
122,640
120,624
121,720
120,624
121,608
121,560
120,544
121,608
120,544
121,560
120,512
121,512
120,592
120,496
121,528
120,512
122,544
120,560
120,496
121,464
120,416
120,464
122,496
120,432
120,448
120,496
121,464
121,464
120,352
121,368
120,416
120,416
122,432
120,416
120,368
120,368
121,384
121,368
120,288
120,368
121,384
122,384
120,432
120,352
120,336
120,304
120,304
122,464
120,320
120,304
120,304
120,336
121,240
120,256
120,256
120,288
121,336
121,336
120,224
121,240
120,208
120,256
122,224
120,176
120,208
120,112
121,208
121,288
120,192
121,144
120,224
120,176
121,208
121,112
120,128
121,128
120,224
120,240
122,144
120,160
120,112
121,144
120,224
121,160
121,144
120,64
121,160
120,192
121,112
121,160
120,160
120,208
120,304
121,144
121,128
120,192
121,176
120,240
120,176
123,144
119,208
120,192
121,288
120,176
121,144
120,144
120,176
120,224
120,144
121,176
120,160
120,176
121,288
120,176
121,176
120,160
121,144
120,272
120,208
122,144
120,160
120,176
121,272
120,112
122,160
120,128
120,176
121,208
120,208
120,144
121,176
120,160
120,192
121,160
120,160
121,176
121,224
120,208
121,96
120,192
121,144
120,160
121,272
120,240
120,176
121,160
121,160
120,288
120,208
121,192
121,192
120,192
121,288
120,192
120,112
121,160
121,144
120,176
121,160
120,208
120,128
122,192
120,192
120,144
121,192
120,128
121,176
121,272
120,208
120,208
120,160
121,176
121,336
120,96
120,144
120,192
122,176
120,208
120,176
121,208
120,224
121,160
122,224
119,144
120,208
120,176
121,224
121,160
120,144
120,160
121,176
120,240
121,272
121,176
120,112
120,80
121,208
121,272
120,192
120,144
121,160
120,176
122,304
120,176
121,176
120,128
120,144
122,176
120,176
120,160
120,160
120,192
120,208
121,192
120,160
120,176
120,224
121,208
120,192
120,144
120,160
120,224
121,224
120,176
120,144
120,208
120,176
121,304
120,144
120,224
120,192
120,176
122,288
120,128
120,112
120,192
121,144
121,256
120,112
121,144
120,176
120,128
122,176
120,176
121,128
120,192
120,160
121,240
121,112
120,128
120,208
120,160
121,256
121,160
120,160
120,128
121,176
121,256
120,112
120,160
121,144
120,192
121,240
120,96
121,192
120,176
120,224
121,256
121,176
120,144
121,64
120,144
120,160
122,128
120,112
120,112
120,176
121,224
121,112
120,144
121,160
120,208
120,256
121,208
121,160
120,160
121,208
120,240
120,176
121,160
122,176
119,144
120,192
120,176
122,192
120,240
121,256
120,256
120,208
121,176
121,256
120,176
120,240
120,144
121,112
121,160
120,208
120,240
121,160
120,176
121,144
121,176
120,240
120,160
121,112
121,144
120,160
120,256
121,176
120,160
122,112
120,208
121,224
120,208
120,128
122,176
120,224
120,240
121,128
120,192
120,144
121,128
121,352
120,176
120,144
121,144
121,176
120,240
121,160
120,128
120,144
122,176
120,208
120,176
121,128
120,112
121,176
121,208
120,160
121,128
120,192
120,192
121,224
121,176
120,192
121,128
120,240
120,224
122,112
120,144
120,192
121,176
120,176
122,128
120,176
121,96
120,192
120,304
121,128
121,144
120,160
120,176
121,272
122,176
119,160
121,208
120,240
120,240
121,160
120,144
121,144
121,208
120,272
120,128
121,176
121,208
120,192
120,224
121,176
120,128
121,176
121,176
120,240
120,192
121,256
120,160
121,208
121,272
120,176
120,144
121,176
121,176
120,176
121,144
120,160
121,112
121,192
120,256
121,144
120,112
120,208
121,208
121,192
120,144
120,128
120,160
121,176
121,304
120,208
120,192
120,192
121,208
121,256
120,144
121,192
120,176
121,208
121,208
120,208
120,176
121,128
123,208
118,224
120,144
121,160
121,192
120,208
121,224
120,160
120,192
122,176
120,224
120,240
120,208
121,112
121,144
120,176
121,272
120,144
120,192
122,112
120,176
120,208
120,208
121,192
121,224
122,240
118,176
121,160
120,160
120,176
121,176
120,208
120,144
120,160
121,144
120,160
120,240
121,160
120,96
121,112
120,176
120,208
120,208
121,128
121,96
120,160
121,176
120,160
120,208
121,192
121,144
120,160
121,144
120,160
120,176
122,192
120,272
120,192
121,144
120,176
121,224
120,224
120,160
121,144
120,80
121,144
121,208
120,176
120,208
121,192
120,224
121,240
120,192
120,176
120,96
121,208
120,224
120,80
121,144
120,208
120,240
121,160
120,160
120,160
120,144
121,256
121,224
120,144
120,208
120,192
120,128
121,208
121,160
120,176
121,208
120,176
121,304
120,160
120,256
121,240
120,192
121,240
120,144
121,128
120,144
120,176
122,240
120,144
122,128
118,112
121,176
121,272
120,208
120,160
121,160
120,176
121,304
121,208
120,176
120,160
121,160
120,288
121,160
121,160
120,144
120,176
120,224
121,144
120,144
121,192
120,224
120,272
121,128
120,112
120,112
120,176
120,288
121,176
120,160
121,144
120,192
120,192
121,144
120,176
120,192
120,176
121,272
120,80
120,192
121,128
120,256
121,192
120,192
120,176
121,176
120,224
121,176
121,144
120,224
121,144
120,224
121,224
121,176
120,176
120,176
121,176
120,288
121,240
121,192
120,128
120,192
121,240
121,160
120,160
121,128
120,208
120,240
121,224
120,144
119,160
121,192
120,272
121,128
120,176
120,208
120,144
120,224
121,144
120,176
120,160
120,176
120,240
121,144
120,112
120,160
121,160
120,320
121,160
120,160
120,128
120,240
120,272
121,208
120,144
120,80
120,176
121,240
121,208
120,176
120,144
120,208
121,272
121,208
119,176
120,224
120,224
121,224
120,144
121,160
120,176
120,208
121,240
120,176
120,160
121,192
120,176
121,192
120,160
121,224
120,112
120,176
122,240
120,160
121,128
120,208
120,176
121,240
121,112
121,144
120,208
120,192
121,272
121,176
120,208
120,208
121,176
120,288
121,176
120,192
120,80
120,160
120,240
121,144
120,224
120,208
120,224
120,224
121,208
121,192
120,176
120,144
121,272
121,160
120,160
120,144
121,160
121,272
120,192
120,160
120,144
121,160
120,160
121,144
120,128
121,160
120,160
121,240
121,176
120,160
121,208
120,128
120,160
122,176
120,192
120,160
121,224
120,176
121,160
121,176
120,176
120,144
121,272
120,144
121,192
120,144
120,96
121,272
120,144
121,160
123,96
118,192
120,224
120,224
121,128
121,144
120,192
120,192
121,112
120,176
121,208
121,208
120,224
120,224
121,208
121,144
120,208
121,256
120,224
120,144
121,192
121,208
120,224
121,128
120,144
121,128
121,192
120,240
121,160
120,144
120,192
121,160
121,256
120,144
120,128
121,176
121,192
120,240
121,192
120,160
120,144
121,224
121,272
120,80
121,208
120,176
120,192
122,272
120,208
120,144
121,304
120,208
121,272
120,224
121,240
120,192
120,272
121,352
121,208
120,272
120,256
121,336
120,400
121,272
121,304
120,336
121,320
120,336
121,336
121,336
120,288
120,336
121,448
121,320
120,368
120,352
120,480
120,416
122,400
120,448
121,400
120,464
120,480
122,416
120,432
120,448
121,496
120,512
121,496
121,496
120,480
120,496
121,576
120,528
121,496
121,560
120,544
120,592
121,560
121,528
120,544
121,560
120,608
120,528
121,576
121,576
120,592
120,736
121,624
120,592
121,640
121,688
120,704
120,624
120,688
122,624
120,688
120,784
120,656
121,688
121,656
120,688
120,816
121,720
120,688
121,608
121,736
120,784
120,688
120,704
122,816
120,768
120,816
120,656
121,768
121,752
120,848
121,864
120,784
120,816
121,816
121,880
120,832
121,864
120,848
120,784
121,880
120,960
121,800
120,864
121,880
121,864
120,848
121,912
120,928
120,880
121,880
120,1024
121,880
120,944
120,912
121,928
121,944
120,912
120,912
121,944
121,928
120,944
120,960
120,960
120,944
121,944
120,1040
120,928
120,944
120,944
121,976
120,1040
120,928
120,1008
120,976
122,1072
120,1040
120,976
120,976
120,912
122,1008
120,1072
120,960
121,992
120,1040
122,1040
119,1024
121,1008
120,1008
120,944
121,1040
120,1040
121,976
120,1024
120,976
121,1056
121,1072
120,976
120,1008
121,960
120,1040
121,1088
121,992
120,1040
120,992
121,1056
121,1104
120,1008
121,976
120,960
120,1040
122,1008
120,1008
120,1008
120,1008
121,1040
121,1136
120,944
121,1008
120,960
120,1008
121,1088
121,976
120,992
121,944
120,1008
120,928
121,960
120,928
121,912
120,976
120,992
122,960
120,960
120,880
120,944
121,1040
121,896
120,912
120,912
121,976
120,992
121,928
121,944
120,864
120,944
120,992
121,864
120,816
121,832
121,864
120,928
120,848
121,816
121,848
120,784
121,880
120,816
120,816
122,784
120,816
121,912
120,816
121,752
120,752
121,768
121,832
120,736
121,768
119,784
122,784
120,784
120,736
120,704
121,720
121,768
120,688
121,720
120,672
120,624
121,672
120,768
121,656
120,656
120,672
122,640
120,688
120,624
121,608
120,608
120,656
122,720
120,624
121,624
120,592
120,560
122,688
120,592
120,544
121,528
120,528
122,704
120,528
120,512
121,448
120,560
121,560
121,528
120,528
120,528
120,496
121,624
121,496
120,480
120,496
121,560
120,480
121,480
121,464
120,432
120,448
120,544
121,464
121,432
120,352
120,480
120,480
122,432
120,432
120,432
121,416
120,496
121,400
120,352
120,352
121,400
120,416
122,368
120,368
120,352
120,384
121,400
120,336
122,272
120,288
121,320
120,384
120,304
121,304
121,320
120,336
120,448
120,304
121,272
121,320
120,272
120,368
120,224
121,224
121,272
120,256
120,400
120,208
122,272
120,256
120,320
120,272
121,272
121,240
120,240
121,224
120,272
120,192
122,256
120,272
120,272
120,368
121,160
121,192
120,224
121,224
120,304
121,160
121,256
121,224
120,208
120,224
120,208
121,176
121,208
120,256
120,336
120,144
120,144
122,208
120,208
120,256
121,144
120,160
121,160
121,176
120,272
120,176
120,96
121,144
121,208
120,272
120,176
120,144
122,144
120,208
120,224
121,96
120,176
121,176
121,208
120,256
120,144
121,128
120,176
121,224
121,240
120,176
120,176
121,144
121,176
120,192
121,144
120,160
120,176
121,176
120,256
120,176
121,144
121,224
120,240
120,240
120,160
120,112
120,144
121,176
120,208
120,176
120,224
121,176
120,192
120,288
120,272
120,144
121,96
120,224
121,304
120,160
120,160
121,192
121,176
120,224
120,112
121,176
121,144
120,176
121,224
120,176
121,144
121,176
120,176
120,272
120,192
121,160
120,144
121,192
120,256
120,144
121,160
120,160
122,240
120,272
120,192
121,224
120,176
121,208
120,272
121,144
120,144
120,144
121,240
121,288
120,176
120,144
121,208
121,192
120,240
121,144
120,144
120,208
121,176
121,272
120,176
121,160
120,144
120,208
121,320
121,128
120,160
121,160
120,224
120,272
122,112
120,128
120,208
120,240
120,240
121,128
121,176
120,176
120,160
121,224
122,144
119,144
121,144
120,176
120,160
120,208
122,192
120,192
120,208
120,256
121,144
121,112
120,160
121,176
120,224
120,160
122,144
120,128
120,256
121,240
120,208
121,176
121,208
120,160
120,272
121,192
120,176
121,192
121,240
120,272
120,192
120,144
122,208
120,272
120,208
120,224
121,192
121,272
120,192
121,240
120,208
120,144
122,176
120,224
120,272
120,176
120,208
121,144
120,192
121,256
120,192
120,240
122,144
120,176
120,320
121,128
120,208
121,176
120,176
121,240
120,176
120,176
121,160
121,176
121,176
120,144
120,144
121,176
120,224
121,176
120,176
121,96
120,96
120,208
122,160
120,192
120,160
120,160
121,224
121,224
120,144
121,160
120,48
122,192
119,272
121,96
120,160
120,176
120,192
120,176
121,160
121,160
120,192
120,176
120,192
122,208
120,224
120,176
120,192
120,144
121,144
120,112
120,160
121,176
120,320
121,144
121,144
120,96
120,192
121,320
121,160
120,144
121,144
120,160
120,256
121,144
121,240
120,176
120,208
121,208
120,192
121,176
120,176
121,208
120,240
120,176
122,208
120,192
120,192
121,224
120,144
121,144
120,176
121,192
120,208
120,176
122,128
120,176
121,224
120,288
120,160
121,160
121,176
120,192
121,208
120,160
121,80
121,176
120,208
120,272
120,160
121,208
121,144
120,256
120,272
120,144
121,144
121,208
120,192
120,176
121,128
120,208
121,176
120,224
120,160
121,144
121,160
120,176
120,192
120,288
122,128
120,176
120,160
120,192
120,192
121,176
120,160
121,160
120,240
120,192
121,240
121,144
120,224
120,224
120,208
121,208
120,192
121,144
120,176
120,256
121,192
120,160
120,192
121,224
120,272
121,128
121,112
120,176
120,192
120,160
122,176
120,176
120,224
120,240
121,256
120,144
121,144
120,192
120,144
121,224
120,160
122,80
120,192
120,192
121,224
120,176
121,160
120,176
120,192
120,240
120,160
121,208
120,192
120,208
121,304
120,112
121,160
120,224
119,160
120,256
121,144
120,128
121,208
120,208
120,272
121,208
120,160
120,144
121,208
120,208
121,144
121,176
120,176
120,208
120,224
122,144
120,192
120,112
120,224
122,256
120,176
120,112
121,224
120,192
120,208
121,192
121,128
120,112
120,160
121,240
121,240
120,112
121,144
120,176
121,192
121,96
120,160
120,208
121,224
120,256
121,96
120,144
121,144
120,160
122,240
119,32
121,192
120,192
120,144
121,272
120,144
121,176
121,160
120,176
120,272
121,176
121,176
121,208
120,192
120,288
121,112
121,208
121,112
120,208
120,256
121,176
120,208
121,160
121,208
120,304
120,256
121,240
121,176
121,240
120,320
120,240
121,224
121,240
120,288
120,272
120,192
120,240
122,240
120,240
120,320
121,208
120,240
121,304
120,256
121,304
120,272
120,224
121,304
121,304
120,288
121,224
120,288
120,256
121,336
121,400
120,368
120,208
123,272
119,384
120,336
121,320
120,336
120,320
121,368
121,464
121,336
120,304
120,416
121,432
120,464
120,384
121,432
120,448
121,432
119,464
121,368
120,416
120,368
121,400
121,464
120,368
120,384
122,480
120,480
120,480
121,432
120,512
120,416
122,480
120,496
120,448
121,464
120,528
121,464
120,528
121,432
120,512
120,496
121,512
121,512
120,432
121,528
120,496
120,528
122,512
120,528
120,544
121,512
120,512
122,560
120,528
120,512
120,512
121,544
120,672
121,528
120,528
121,592
120,592
121,624
120,560
121,528
120,608
120,608
121,672
121,624
120,608
121,544
120,608
120,608
122,592
120,544
120,592
121,688
120,720
121,624
120,624
121,656
120,656
120,720
121,672
120,624
120,624
120,656
120,752
121,624
121,720
120,688
120,688
121,672
120,544
120,608
120,592
120,704
121,784
120,672
120,688
120,672
120,704
121,720
120,736
121,736
120,768
120,736
121,752
122,736
118,640
121,752
120,688
121,736
120,656
121,656
120,720
120,720
122,784
120,720
120,640
121,736
120,768
121,784
121,720
120,736
120,784
121,688
120,736
122,752
120,704
120,720
121,704
120,784
121,704
121,704
120,720
120,768
120,848
122,736
120,720
120,672
121,752
120,816
120,688
122,720
120,736
120,736
121,832
120,736
121,736
120,720
121,768
120,832
120,672
122,720
120,768
120,800
121,832
120,736
121,704
121,720
120,752
120,736
120,656
121,720
121,752
120,688
121,816
121,720
120,720
120,784
122,720
120,784
121,656
120,752
120,704
121,752
120,832
121,672
120,688
120,720
121,736
121,800
120,672
120,688
120,736
122,720
120,800
120,672
120,704
120,656
122,688
119,736
121,688
120,672
120,640
120,704
122,768
120,640
121,576
120,720
120,688
121,672
120,656
120,640
120,672
120,688
121,688
121,624
120,592
120,544
120,640
121,640
120,576
120,592
120,496
121,656
121,624
120,480
121,592
120,592
120,592
122,576
120,496
120,576
121,528
120,624
121,656
121,592
120,592
120,544
120,624
121,624
120,544
120,560
121,608
120,528
121,528
120,544
120,480
121,448
120,560
121,560
121,528
120,512
120,528
121,544
120,544
121,512
121,480
120,480
120,448
120,480
121,464
121,496
120,464
120,496
120,560
122,496
120,432
120,544
120,496
121,528
121,432
120,432
120,400
121,448
121,528
120,368
120,416
120,368
121,432
120,448
121,432
122,448
118,432
121,416
120,528
121,368
120,336
120,384
121,400
120,528
121,368
120,352
120,352
120,400
121,432
120,400
120,336
120,432
120,352
121,400
120,368
121,352
120,368
120,368
121,384
120,336
121,320
119,224
120,288
121,368
120,256
120,304
120,352
120,336
121,272
120,272
120,272
120,240
121,288
120,272
120,256
120,304
120,256
121,320
120,400
120,304
120,272
120,256
121,304
120,416
120,288
120,272
121,272
119,256
120,320
120,208
120,240
121,192
120,224
120,304
120,176
120,240
121,304
120,208
120,320
120,192
121,240
121,224
120,176
120,272
121,208
120,208
121,208
120,304
121,320
120,160
121,144
120,176
120,192
121,192
120,176
120,192
121,256
121,192
120,256
120,208
121,192
121,160
120,160
120,160
120,192
120,192
121,208
120,208
120,256
120,144
122,144
120,224
120,224
120,240
120,176
121,160
120,128
120,160
121,192
120,144
121,144
120,160
120,192
120,160
120,96
121,112
120,96
120,176
120,240
120,176
121,128
120,208
120,208
120,208
120,176
121,192
120,176
120,208
121,256
120,160
121,192
120,160
120,288
120,192
121,192
121,176
120,176
120,192
123,272
118,176
121,176
120,176
120,192
120,256
120,128
122,208
120,176
120,176
120,240
120,176
122,176
120,192
120,208
120,208
120,176
121,192
120,144
121,208
120,288
120,144
121,144
120,176
121,208
120,208
120,160
121,144
120,160
121,240
120,272
120,176
121,176
120,208
120,160
121,160
120,144
121,144
120,160
121,112
120,176
120,144
121,144
120,176
120,208
120,176
121,112
121,144
120,192
120,176
120,176
121,80
121,144
120,144
120,240
120,288
121,144
120,160
121,144
120,160
120,240
121,128
121,192
120,176
120,144
120,288
121,176
121,192
120,208
120,176
120,304
120,160
121,192
120,240
121,192
120,256
120,160
121,144
120,208
120,224
120,272
121,128
121,144
120,128
120,192
120,272
121,240
121,224
120,208
120,144
120,368
120,112
122,160
120,176
120,272
120,304
120,96
121,144
121,192
120,192
120,240
120,144
122,160
120,160
120,272
120,208
120,224
121,192
120,208
120,224
120,256
121,176
121,128
120,192
120,240
120,256
120,208
121,176
120,240
120,224
120,224
121,192
121,208
120,224
120,240
120,240
121,144
120,176
120,160
120,160
120,272
121,208
120,144
122,192
118,176
120,160
120,160
120,128
120,208
120,240
121,272
120,208
119,208
120,224
121,208
120,208
120,176
121,192
120,192
121,208
120,240
120,240
120,160
121,176
121,240
120,240
120,176
121,208
120,208
121,240
120,272
120,240
120,224
120,192
121,192
120,208
120,256
120,176
121,144
121,288
120,272
120,176
120,224
121,208
121,208
120,304
120,240
120,224
120,240
121,240
120,336
120,256
121,240
120,256
121,272
120,272
120,224
120,208
120,304
121,240
120,288
121,240
120,288
121,272
120,304
120,240
121,240
120,240
120,336
121,320
120,320
121,272
120,256
121,272
120,288
120,288
120,272
120,288
122,256
120,288
120,304
120,288
120,352
121,272
120,304
120,464
120,288
121,288
121,272
120,288
120,336
120,336
121,288
121,304
120,416
120,400
120,320
120,352
122,304
120,304
120,384
120,272
120,336
121,352
121,352
120,464
120,368
120,352
121,400
121,416
120,496
121,384
120,352
120,336
120,464
122,432
120,368
120,352
120,384
120,464
121,512
121,400
120,400
120,400
120,448
121,496
120,416
121,368
120,384
120,480
121,544
121,368
120,384
120,432
120,416
121,528
120,368
120,400
121,448
120,432
121,528
120,464
121,448
120,384
120,448
121,528
121,416
120,416
120,512
120,464
121,576
121,432
120,352
120,528
121,496
120,576
121,496
120,448
120,448
120,448
121,560
120,496
121,528
120,480
120,416
121,576
121,528
120,480
120,480
120,528
121,592
121,512
120,464
120,432
120,480
121,560
121,512
120,480
120,544
120,496
121,592
121,512
120,480
120,544
120,464
120,560
122,528
120,512
120,528
121,576
120,608
121,544
120,528
121,544
120,576
120,624
120,496
120,528
120,512
121,560
120,608
120,560
120,496
120,528
121,560
120,528
120,560
120,544
120,544
121,576
120,560
120,560
120,544
120,528
120,624
120,592
120,576
120,544
121,512
122,544
119,608
120,544
120,512
121,528
120,528
120,592
120,560
120,528
121,528
120,512
120,672
120,512
120,544
121,592
120,560
120,704
120,528
121,528
120,496
120,544
120,592
120,544
121,512
120,512
122,592
118,688
120,528
121,496
120,496
120,512
120,624
120,496
121,496
120,544
120,576
120,576
120,560
121,512
120,496
121,576
120,592
120,544
121,512
121,544
120,528
120,656
120,480
121,544
120,512
120,560
121,608
120,448
121,560
120,496
121,528
120,624
120,528
121,528
120,480
121,624
120,592
120,496
121,512
120,528
121,576
120,656
120,512
121,544
120,480
121,576
120,560
120,496
121,496
120,512
121,560
120,576
120,432
121,512
121,464
120,560
120,560
120,464
121,528
120,464
120,480
121,544
120,464
121,480
120,464
120,512
120,576
121,496
121,480
120,480
120,448
120,496
121,432
121,448
120,512
120,544
120,528
120,448
122,512
120,464
120,528
120,496
120,448
122,416
120,448
120,496
120,544
120,480
122,432
120,448
120,464
120,496
121,432
121,416
120,416
121,416
120,512
120,384
