data_start,2019
battery_voltage,4.24
120,336
122,352
120,336
120,320
121,432
120,304
121,304
120,368
121,432
120,464
121,336
121,352
120,320
120,352
121,496
121,336
120,320
121,320
120,320
120,448
122,384
120,400
120,400
121,368
120,512
121,368
120,304
121,288
120,432
121,464
120,400
120,304
121,352
120,352
121,416
120,304
121,336
120,304
121,352
121,464
120,352
120,336
121,288
121,336
120,464
121,336
120,320
120,368
121,432
120,432
120,304
121,368
121,400
120,336
120,416
122,336
119,320
121,352
120,432
121,352
120,336
120,304
121,400
121,336
120,400
120,368
122,352
120,400
121,384
120,496
120,288
122,352
120,336
120,352
120,352
121,352
121,384
120,368
120,368
121,464
121,336
120,384
121,384
120,400
120,448
122,320
120,304
120,400
121,400
120,368
121,288
120,320
120,368
120,368
121,400
120,352
120,272
120,368
121,352
120,480
120,272
120,352
121,304
121,400
120,416
120,336
120,352
121,352
121,384
120,448
120,384
120,336
121,336
120,304
120,416
120,288
121,384
120,304
120,384
120,352
121,352
120,320
120,272
120,352
120,416
121,336
120,304
120,256
120,432
121,368
120,336
120,336
121,320
120,384
121,416
120,336
120,368
120,384
121,336
120,416
121,320
120,368
120,336
121,400
121,448
120,272
120,400
121,288
120,336
121,400
120,384
120,320
121,256
121,368
120,416
120,336
121,368
121,304
120,336
120,416
120,320
122,320
120,432
122,368
119,304
120,288
120,416
121,336
121,384
120,400
120,352
121,384
121,288
120,416
120,384
120,368
122,320
120,352
120,336
120,432
121,336
121,368
120,336
121,304
120,384
121,416
120,352
120,400
121,352
120,384
121,320
120,400
120,368
120,352
122,384
120,416
120,320
120,256
121,384
121,400
120,320
120,320
120,384
121,352
121,432
120,304
121,368
120,320
121,304
120,384
121,256
120,320
120,336
121,320
121,432
120,368
120,288
121,384
121,320
120,400
120,368
120,368
122,336
120,368
120,432
120,368
121,336
121,352
120,320
120,480
120,352
121,352
121,352
120,368
120,432
120,336
122,336
120,320
120,384
120,384
121,240
120,304
121,384
120,352
120,464
121,336
122,304
119,336
120,352
120,416
121,272
121,320
120,336
121,432
120,432
121,368
120,400
120,256
121,368
120,368
122,368
120,304
120,304
121,368
120,368
121,384
121,352
120,304
120,416
121,368
121,368
120,320
120,352
121,432
121,416
120,336
121,304
120,368
120,384
122,448
120,336
120,336
121,336
120,368
121,496
121,304
120,416
120,384
122,368
120,416
121,304
120,368
120,336
121,352
121,480
120,384
120,336
121,352
121,400
120,336
120,336
121,336
121,352
121,400
120,448
120,304
121,400
121,368
120,384
121,432
120,400
120,272
121,336
120,416
121,368
120,368
121,320
121,384
120,384
120,464
121,352
121,288
120,368
121,320
120,464
120,352
121,304
120,304
121,336
122,432
119,336
120,304
120,336
122,368
120,416
121,288
120,320
120,320
121,368
121,416
120,336
120,416
121,336
121,368
121,448
120,352
120,288
121,304
121,336
120,416
120,320
121,352
120,336
121,352
120,464
120,384
121,368
121,400
120,432
120,400
120,336
121,368
120,368
121,368
120,448
121,336
120,320
120,272
120,384
120,448
122,336
120,336
120,320
120,384
121,416
121,352
120,352
120,288
120,336
122,432
120,304
121,320
120,384
120,336
122,400
120,416
120,336
120,384
122,320
120,464
120,368
120,384
120,400
121,400
121,400
120,336
120,368
121,288
120,416
121,432
120,368
120,304
121,288
121,416
120,432
120,384
120,352
122,336
120,368
120,416
121,352
121,368
120,336
121,352
120,416
120,352
121,336
121,320
120,432
120,384
121,288
121,352
120,384
120,416
121,320
121,336
120,336
120,368
121,400
121,464
120,400
120,272
120,352
120,384
122,400
120,352
120,368
121,368
120,368
121,432
121,336
120,368
120,320
121,352
120,400
121,416
120,320
120,320
121,352
121,384
120,368
120,288
121,368
121,368
120,448
120,272
121,384
121,432
120,368
120,432
121,352
120,368
121,448
121,320
120,384
120,336
121,368
120,288
121,384
120,400
120,336
121,336
120,304
120,368
121,416
121,384
120,336
120,240
121,368
120,464
121,336
120,384
121,240
120,400
120,432
121,400
120,336
120,384
121,400
121,400
120,368
120,336
121,272
120,416
121,416
122,368
118,368
120,352
120,400
121,384
121,304
120,288
120,304
120,336
121,416
120,368
120,304
120,224
121,384
120,352
120,336
120,320
121,368
120,416
120,368
120,304
121,288
120,272
120,320
120,416
122,304
119,368
120,304
121,368
120,464
120,304
122,288
120,336
120,368
120,448
120,320
122,432
120,336
120,384
121,368
120,352
121,368
120,304
121,384
120,384
121,336
121,336
120,352
120,352
120,448
122,432
120,368
120,320
120,416
121,432
120,320
121,336
120,320
120,416
121,416
120,384
121,352
120,336
121,336
120,400
121,400
120,288
120,336
121,368
120,384
121,352
120,320
121,336
121,336
120,416
120,336
120,352
121,384
121,368
120,432
120,400
120,288
122,336
120,400
120,464
121,336
120,320
121,304
120,416
120,368
120,368
121,336
121,352
120,400
120,384
121,272
121,336
120,256
120,336
121,416
120,400
121,304
120,400
120,400
121,464
121,368
120,368
120,304
122,336
119,400
121,368
120,336
121,352
121,384
120,448
120,320
120,352
121,336
121,352
120,464
120,432
121,320
121,384
120,384
120,448
120,352
122,352
120,288
120,368
120,400
121,288
120,320
120,320
120,336
121,368
121,336
120,336
120,256
121,304
121,448
120,304
120,320
120,288
121,400
121,416
120,352
120,320
121,368
120,368
121,432
120,400
121,352
120,352
121,352
120,416
121,352
120,416
120,304
121,400
121,448
120,352
120,384
121,336
121,368
120,448
121,368
120,320
121,336
120,352
121,400
120,336
120,352
121,368
120,400
121,432
120,336
121,336
120,352
121,416
120,432
120,400
121,400
120,400
120,336
120,384
121,336
120,336
120,336
120,368
120,480
121,320
123,368
118,336
120,368
120,384
121,336
120,368
120,288
120,400
121,400
120,368
120,288
120,352
120,384
121,400
120,336
120,368
120,304
121,400
120,400
120,304
120,320
121,336
120,352
120,448
120,384
122,320
119,336
120,368
120,464
120,336
121,272
120,336
120,336
121,352
120,336
121,304
120,352
120,352
120,416
121,384
120,304
120,272
120,368
121,416
120,320
120,368
121,272
120,304
120,368
120,304
120,320
120,336
121,400
120,416
120,320
120,336
121,336
120,400
120,368
120,304
120,368
120,336
120,368
120,400
121,336
120,336
120,336
120,400
121,368
120,336
120,368
121,400
120,368
121,400
120,320
120,368
121,336
120,352
121,400
121,336
120,368
121,272
120,336
121,320
120,304
120,352
120,304
121,368
121,432
120,352
120,336
121,352
120,352
121,448
120,368
120,352
121,384
120,304
121,432
120,320
120,304
121,352
120,288
120,400
121,320
121,336
120,352
121,320
120,448
120,368
121,336
121,336
120,336
120,480
121,400
120,368
121,256
120,400
120,496
122,352
120,336
120,336
121,400
120,400
121,320
120,304
120,368
121,336
120,464
121,320
120,336
121,368
120,432
121,368
121,384
120,352
120,352
121,304
121,416
120,336
120,352
120,272
121,416
121,448
120,368
120,352
120,336
122,384
120,432
120,304
120,352
122,352
120,368
120,400
120,368
121,352
121,336
120,416
120,416
121,304
121,400
120,352
121,384
120,416
120,320
121,384
120,336
121,400
120,400
121,336
120,288
120,368
121,352
120,384
121,368
120,368
121,352
120,320
120,432
121,336
120,320
121,336
120,384
121,512
121,368
120,384
120,368
121,352
121,400
120,288
120,368
120,352
121,352
121,400
120,336
121,352
120,336
120,400
121,448
121,320
120,336
120,304
122,352
120,560
120,336
120,368
120,288
121,400
120,384
121,400
120,272
121,352
120,400
120,464
121,400
120,352
123,352
118,480
120,400
121,400
120,384
121,352
120,352
121,368
120,320
121,320
120,304
121,368
120,384
120,320
122,320
120,336
120,384
120,320
122,256
120,336
120,304
120,368
121,448
121,352
120,336
121,336
120,368
121,368
120,320
120,304
121,352
120,432
121,432
120,336
121,352
120,304
120,400
121,432
121,384
120,336
120,336
121,352
121,384
120,304
120,352
120,368
121,336
121,432
120,352
120,320
121,352
121,368
120,448
120,368
121,336
121,336
120,400
120,416
120,336
120,320
122,400
120,384
120,384
121,336
121,320
120,336
120,352
121,448
120,352
121,320
120,304
120,368
120,448
121,400
121,368
120,368
120,384
120,448
121,384
120,352
120,432
121,400
120,464
123,384
118,352
121,336
120,304
121,480
120,400
121,320
120,352
120,352
121,480
120,352
121,400
120,352
120,432
121,464
121,352
120,256
121,352
120,320
122,448
120,400
120,368
120,352
122,432
120,496
120,368
120,304
120,368
121,368
121,432
120,320
120,320
121,352
120,304
121,416
120,288
120,304
121,304
121,352
120,400
120,368
121,304
120,368
121,352
120,352
120,304
122,304
120,272
120,400
121,432
121,320
120,336
120,320
121,352
120,400
121,304
120,416
121,320
120,464
120,432
122,336
120,304
120,352
120,288
121,368
121,288
120,368
120,352
121,400
121,400
120,384
120,336
121,336
120,432
121,496
120,336
121,336
120,288
121,416
120,464
120,336
121,368
120,352
121,352
120,480
120,352
121,368
121,368
120,352
121,432
120,384
120,352
122,304
120,304
120,352
121,320
120,320
121,384
121,368
120,416
121,320
121,352
120,368
120,480
120,400
120,368
122,336
120,368
120,384
120,464
121,368
120,384
120,336
121,368
120,400
121,320
120,336
120,320
120,352
122,384
120,368
120,368
120,384
121,352
120,464
121,352
120,304
120,336
121,352
120,384
120,272
120,288
121,240
121,256
120,256
120,176
120,176
122,160
120,240
120,224
120,192
120,208
121,192
120,224
120,256
120,208
121,208
120,208
120,176
120,240
121,160
120,192
120,192
121,128
120,240
121,176
120,192
120,144
120,240
121,224
120,176
120,144
121,176
120,144
121,224
120,176
120,176
121,144
120,192
121,240
120,144
120,160
121,208
121,160
120,256
120,176
121,224
120,192
121,176
120,144
120,208
120,352
121,160
120,144
120,144
120,208
121,208
121,80
120,160
120,256
120,160
122,176
119,128
120,160
120,304
122,240
120,160
120,192
120,208
120,256
121,144
120,176
121,160
120,176
121,224
121,176
120,112
120,176
120,240
121,272
120,176
120,96
120,208
121,224
120,256
120,96
121,176
118,176
121,208
120,224
120,192
120,144
121,240
120,176
120,192
120,176
121,160
120,176
120,224
120,224
120,112
121,176
119,176
120,208
121,256
120,176
120,160
120,192
120,176
121,224
120,160
120,176
120,208
121,208
120,256
121,112
120,160
121,128
120,176
120,240
120,112
120,224
122,224
120,224
120,240
120,160
121,192
120,160
120,192
120,208
121,160
121,176
120,144
120,208
120,272
121,176
120,112
120,160
121,208
120,256
121,160
120,192
120,128
121,208
121,192
120,176
120,96
120,176
120,192
121,192
120,96
121,144
120,176
121,176
120,224
120,128
120,176
120,160
121,160
120,208
120,208
120,224
122,176
120,208
120,272
120,176
121,176
120,160
121,208
120,208
120,160
121,224
120,144
120,192
120,176
121,160
120,128
120,160
120,160
121,208
121,176
120,176
120,176
120,176
121,240
121,160
120,192
120,176
120,176
121,240
121,192
120,144
120,192
121,208
122,224
118,224
120,112
120,192
121,176
120,256
120,160
120,160
122,208
120,192
120,272
120,144
121,160
120,128
120,208
120,240
120,176
121,160
120,160
121,192
120,240
121,192
120,128
120,176
121,128
120,256
121,144
120,208
120,160
120,128
122,272
120,192
120,160
120,160
121,192
121,208
120,208
120,112
120,208
121,160
120,224
120,160
120,112
120,80
121,192
121,224
120,208
120,176
121,176
120,224
120,256
120,176
121,160
120,112
121,208
120,192
120,128
121,144
120,192
120,144
121,368
121,176
120,144
120,208
120,224
120,224
121,112
121,176
120,160
120,224
121,288
121,144
120,128
120,144
120,224
121,160
120,160
120,176
120,192
121,144
120,192
121,192
120,176
120,192
120,208
121,240
121,224
120,112
120,240
121,176
120,176
120,176
120,176
120,128
121,144
121,240
120,208
120,144
121,144
120,192
120,272
121,96
120,144
121,224
120,240
120,224
120,144
122,192
120,144
120,208
120,240
121,144
120,128
120,144
121,176
120,256
121,208
120,208
120,160
120,192
121,304
121,112
120,96
120,112
120,176
121,304
120,128
120,176
120,224
122,176
120,208
120,144
120,176
121,160
121,192
120,208
120,192
120,160
122,128
120,176
120,224
120,144
120,128
122,208
120,240
120,272
121,112
121,144
120,176
120,208
120,224
120,176
121,192
121,112
120,208
120,240
121,144
120,176
120,144
121,208
120,208
121,144
120,112
120,112
120,176
121,240
121,176
120,176
120,144
120,192
121,272
120,80
121,144
120,256
121,192
120,176
120,192
120,128
120,176
121,144
121,272
120,176
120,224
121,160
121,160
120,272
120,192
120,192
121,224
120,160
120,144
120,224
120,176
122,192
120,160
120,240
120,224
121,160
121,176
120,176
120,352
120,176
121,208
120,144
120,208
120,336
121,112
120,96
121,208
120,208
121,240
120,192
121,176
120,208
120,176
121,224
122,160
118,112
121,176
120,208
121,288
120,208
120,160
121,176
120,208
121,224
120,128
120,128
120,128
121,192
120,208
120,176
120,160
121,144
120,192
120,240
120,176
122,144
120,96
120,192
120,240
120,112
121,144
120,112
120,192
120,256
122,128
120,128
120,160
120,176
120,240
121,80
120,160
120,208
121,192
121,224
120,208
120,128
121,176
120,208
121,208
120,128
120,144
120,160
121,128
120,224
120,160
120,160
121,112
121,160
120,256
120,112
120,144
122,240
120,192
120,224
120,208
121,128
120,208
120,208
120,224
120,144
121,208
120,128
120,208
121,256
121,176
120,96
120,176
120,144
120,160
121,208
121,96
120,192
120,128
121,208
120,144
121,192
119,240
120,208
121,240
120,176
120,176
120,192
121,160
120,240
120,112
120,160
120,144
122,160
120,224
120,96
120,128
121,160
120,208
120,240
120,176
121,128
121,160
120,192
120,224
120,144
122,192
120,176
122,240
118,192
121,192
120,144
121,160
120,160
120,240
121,144
120,176
121,208
120,192
120,208
120,128
121,176
120,128
120,144
120,240
121,160
121,144
120,176
120,208
120,192
121,144
120,144
120,144
123,160
118,256
121,192
120,192
120,144
120,160
121,256
120,64
121,208
120,128
120,192
121,176
120,144
120,112
120,224
122,208
120,224
120,160
120,176
121,176
120,160
121,272
120,176
120,144
121,160
120,176
120,272
120,128
121,208
120,176
120,160
120,208
121,128
121,96
120,144
120,176
120,224
122,144
120,128
120,304
120,208
120,208
122,112
120,128
120,208
120,176
121,192
121,208
120,192
120,128
120,160
121,304
121,176
120,176
120,160
121,176
121,224
120,112
120,176
121,192
120,240
121,240
120,144
120,176
120,208
121,112
120,208
120,176
120,176
121,176
120,176
121,272
120,192
120,96
121,112
120,192
120,272
120,208
122,176
120,208
120,224
120,288
120,112
123,176
119,160
120,208
120,272
121,128
120,160
120,112
120,160
121,256
121,144
120,160
120,192
121,128
120,240
121,112
120,160
121,160
120,240
121,240
120,192
120,112
120,224
120,240
121,224
120,176
122,144
119,144
121,224
120,240
120,128
120,160
120,240
121,192
120,144
120,144
120,176
122,160
120,208
120,192
120,144
121,176
121,192
120,192
120,240
120,144
121,144
120,96
121,224
120,192
121,128
120,128
121,112
120,240
120,272
121,144
120,176
120,224
120,160
121,272
120,144
120,160
121,208
120,192
121,208
120,176
120,192
120,112
121,192
120,224
120,112
120,144
122,144
120,160
120,272
120,144
120,112
122,144
120,192
120,272
120,176
121,144
120,176
120,176
121,240
120,112
121,208
120,192
121,160
120,288
120,240
121,160
120,144
120,176
121,240
121,160
120,176
120,224
120,224
120,256
121,160
120,128
120,128
121,208
121,256
120,80
120,176
120,176
120,144
123,128
118,176
120,96
121,176
121,192
120,240
120,176
120,160
120,160
121,192
121,176
120,160
120,160
121,160
121,192
120,240
120,176
120,176
122,144
120,240
120,224
120,160
120,128
121,128
120,144
122,208
118,144
121,192
121,192
120,192
120,288
120,208
121,144
121,112
120,144
120,272
121,96
120,112
120,64
121,288
120,176
121,112
120,96
121,112
120,192
121,288
120,144
120,160
120,144
121,144
120,272
120,208
120,192
121,160
121,112
120,240
120,176
120,128
121,208
121,224
120,320
120,144
120,144
121,160
120,160
120,272
120,176
122,256
120,176
120,176
120,240
121,192
120,112
121,192
120,224
120,240
121,224
120,144
120,192
121,176
120,240
121,144
120,176
120,128
120,192
121,288
121,192
120,208
120,240
120,192
121,256
121,128
120,176
120,160
121,176
120,224
121,192
120,192
120,144
121,224
120,320
121,176
120,176
120,128
121,176
120,256
121,160
120,144
121,208
120,224
120,192
120,160
121,176
121,112
120,176
120,192
120,176
121,176
120,208
120,240
121,368
121,336
120,416
120,416
121,560
120,624
121,560
120,656
120,736
121,736
121,848
120,800
120,800
121,848
120,928
121,928
120,928
120,912
120,896
121,1040
121,1040
120,1040
120,1008
120,1056
121,1136
120,1168
120,1136
121,1136
121,1168
120,1232
120,1232
121,1184
120,1184
120,1280
120,1264
121,1312
121,1264
120,1312
120,1264
121,1344
120,1376
121,1376
120,1328
120,1376
120,1440
121,1472
121,1472
120,1504
120,1456
120,1520
121,1584
121,1488
120,1568
121,1616
120,1632
120,1712
121,1616
121,1616
120,1632
120,1696
120,1760
122,1712
120,1696
120,1744
121,1792
120,1888
121,1760
120,1744
121,1840
120,1856
120,1984
123,1888
119,1840
120,1872
120,1936
120,2016
120,1888
122,1968
120,1952
120,2032
120,2160
120,1968
121,2016
120,2032
120,2112
120,2080
121,2080
121,2096
120,2176
120,2192
120,2224
121,2192
120,2176
120,2144
120,2128
120,2304
122,2208
119,2192
120,2256
120,2224
121,2272
120,2256
120,2224
120,2192
120,2288
121,2384
120,2224
120,2272
120,2224
121,2320
121,2336
120,2272
120,2192
120,2256
121,2240
121,2368
120,2256
120,2224
120,2272
121,2224
121,2288
120,2240
121,2256
120,2224
121,2256
121,2304
120,2224
120,2192
120,2192
120,2192
121,2160
120,2128
120,2144
120,2144
121,2112
120,2112
120,2032
120,2032
120,2016
121,1968
121,2000
120,1936
120,2000
120,1904
121,1984
120,1904
120,1840
120,1840
120,1760
122,1824
120,1936
120,1760
120,1760
120,1712
121,1744
121,1760
120,1696
120,1632
120,1632
121,1584
121,1616
120,1488
121,1488
120,1456
121,1520
121,1568
120,1488
120,1440
120,1344
121,1424
121,1408
120,1296
121,1328
120,1312
120,1280
122,1296
120,1232
120,1200
120,1216
123,1216
119,1232
120,1136
120,1104
121,1136
121,1056
120,1200
120,1072
121,1072
120,1024
122,976
120,1104
120,960
121,976
120,912
121,944
121,992
120,944
120,928
120,832
122,848
120,928
121,864
120,800
120,784
123,768
119,880
120,736
120,752
121,720
120,768
121,704
120,720
121,656
120,624
120,688
121,704
121,608
120,624
120,608
121,656
120,688
121,576
120,560
120,528
121,528
120,608
121,544
121,480
120,480
120,480
121,576
121,448
121,400
120,448
120,496
120,528
122,416
120,400
120,400
121,400
120,496
121,384
120,352
120,288
120,352
120,416
121,352
120,368
120,304
120,288
121,304
121,256
120,240
121,224
120,272
120,272
121,192
121,208
120,144
120,144
121,256
121,176
120,144
121,144
120,176
120,288
121,112
121,176
120,176
121,176
120,256
120,160
121,208
121,176
120,208
121,240
120,160
120,160
122,128
120,176
120,256
121,160
120,192
121,176
121,256
120,256
120,128
122,176
119,96
120,176
121,144
120,128
120,192
120,176
121,240
121,240
120,112
120,176
120,160
122,160
120,256
120,144
120,176
121,176
121,224
120,272
120,80
120,208
120,192
121,176
121,208
120,192
120,160
120,208
121,176
120,256
120,128
120,128
121,176
121,160
120,224
120,176
121,160
120,176
121,160
120,240
120,128
121,160
120,176
121,192
120,304
120,192
121,256
120,96
121,208
121,240
120,192
120,80
121,160
121,192
120,144
120,96
121,208
120,176
121,192
121,240
120,192
121,144
120,208
120,208
121,208
120,176
120,144
121,128
120,192
121,176
121,176
120,144
120,160
121,240
121,240
121,144
120,160
120,144
120,176
121,240
121,176
120,160
120,160
120,160
123,176
119,128
121,160
120,144
120,224
121,288
121,256
121,176
120,176
120,192
120,224
122,176
120,144
120,160
120,208
121,336
121,160
120,128
121,160
120,240
120,176
122,160
120,176
120,176
120,176
121,272
121,176
120,144
121,160
120,224
121,240
120,144
122,128
120,208
120,208
121,272
120,208
121,144
120,192
121,176
120,272
120,144
121,192
120,224
120,240
121,256
120,160
121,160
120,128
120,176
120,256
120,144
122,192
120,144
120,160
121,224
120,128
121,192
121,192
120,144
121,304
120,240
121,176
120,160
121,240
120,288
120,112
122,160
120,240
120,160
121,240
120,224
121,144
121,176
120,192
121,272
120,208
120,160
121,160
121,176
120,240
120,144
120,80
123,160
119,128
120,272
121,208
120,144
122,144
120,144
120,288
120,144
121,176
121,176
120,240
121,256
120,176
121,208
121,208
121,160
120,272
120,112
121,160
121,112
120,128
121,288
120,112
121,192
121,176
120,208
121,224
120,144
121,144
120,160
121,224
121,208
120,160
120,208
120,160
122,176
120,256
120,224
121,208
120,176
122,240
120,224
120,176
121,224
120,192
121,176
121,336
120,192
120,160
120,144
121,192
120,224
120,192
121,192
120,176
121,192
120,208
120,160
120,224
120,160
120,160
121,272
121,176
120,96
120,144
120,192
121,288
120,128
121,160
120,176
120,208
121,208
120,176
120,128
120,144
120,208
121,208
120,208
120,160
120,176
121,176
120,224
122,128
119,176
120,208
120,192
120,256
121,160
120,224
120,176
120,256
121,304
121,176
120,192
120,192
120,224
120,240
121,160
120,160
121,176
120,176
120,208
121,176
121,160
120,192
120,240
120,208
122,192
119,176
120,208
121,192
120,256
121,176
120,160
120,160
120,288
120,272
121,176
120,160
120,240
120,208
120,272
121,192
120,160
121,192
120,176
120,208
121,144
120,160
120,176
120,192
120,224
121,176
120,208
121,160
119,176
120,256
122,144
120,176
120,160
121,208
120,208
121,192
120,176
121,128
120,128
120,192
121,176
120,96
121,144
120,192
120,224
122,160
120,160
120,192
120,208
121,208
121,208
120,144
120,144
120,176
121,224
121,128
120,128
120,160
121,208
120,256
121,192
121,144
120,160
120,256
121,208
120,208
121,192
121,208
120,160
120,288
121,112
121,144
121,176
120,208
120,176
121,128
121,144
120,128
121,176
120,240
120,128
121,144
121,208
122,208
118,272
121,160
120,176
121,160
120,208
120,224
121,176
120,112
121,176
120,176
120,256
120,112
120,112
121,128
120,240
120,208
121,160
120,224
121,176
120,208
120,208
120,128
121,128
120,96
121,192
120,272
120,144
121,112
120,176
120,176
120,176
120,224
121,176
120,128
120,224
120,288
120,176
121,160
121,192
120,224
120,240
120,176
121,176
120,176
120,176
120,224
120,160
121,176
120,176
120,208
120,224
121,176
121,192
120,112
120,128
120,256
121,224
120,96
120,80
120,240
120,208
122,160
120,176
120,144
120,208
120,240
121,192
120,160
120,144
120,240
121,192
121,224
120,176
120,192
120,240
120,224
121,176
120,192
120,144
121,144
120,224
121,96
120,176
120,224
120,208
121,176
120,112
120,160
120,176
121,176
121,224
120,176
120,160
120,128
120,160
121,240
120,144
120,160
121,160
120,192
121,208
121,144
120,160
120,160
120,208
121,288
120,160
121,144
120,128
121,176
120,240
120,160
120,192
122,224
120,176
120,224
120,96
121,192
121,208
120,192
120,192
120,208
121,176
121,160
120,224
120,288
121,112
120,192
121,208
121,240
120,352
120,176
122,128
118,224
122,224
120,288
120,192
121,128
120,160
121,160
121,224
120,112
120,176
120,128
121,192
120,240
120,160
120,192
120,192
122,192
120,192
120,128
121,144
120,176
121,160
120,240
121,176
120,128
120,208
121,192
121,288
120,160
120,112
120,144
121,176
121,288
120,112
121,112
120,176
120,176
121,288
120,208
121,144
120,208
120,224
121,208
120,160
120,144
120,272
121,208
120,208
120,112
120,192
120,80
121,192
120,224
120,128
120,176
120,176
121,224
120,224
120,160
120,176
121,192
120,192
120,224
120,144
120,128
121,208
120,160
120,240
121,192
120,176
121,80
121,192
120,176
120,208
120,160
121,112
121,208
120,208
120,192
121,160
120,128
121,208
123,208
118,160
120,176
120,160
120,176
121,224
121,208
120,224
120,176
120,192
122,208
120,176
120,224
120,144
121,192
121,304
120,160
121,160
120,160
120,272
121,288
121,144
120,176
120,208
121,208
121,208
121,128
120,160
120,160
121,208
120,336
121,128
120,192
120,208
120,224
120,240
121,160
120,192
121,96
120,160
120,272
121,176
121,144
120,112
120,224
120,208
121,144
121,192
120,176
120,160
121,240
121,224
120,160
120,112
120,192
120,288
122,112
120,160
120,176
120,208
120,208
121,240
121,208
120,224
120,144
120,304
121,144
120,192
121,192
120,192
120,176
122,192
120,160
120,144
121,192
120,240
121,144
121,80
120,128
121,144
120,192
120,96
121,112
123,160
118,192
120,208
120,176
122,224
120,112
120,192
121,304
120,192
121,96
120,112
121,176
120,240
120,208
121,176
121,240
120,176
120,240
120,208
121,128
121,96
120,176
120,224
121,160
120,112
122,160
120,224
120,240
120,176
121,144
120,160
121,192
121,272
120,128
120,176
121,192
121,208
120,288
121,176
120,192
120,208
121,176
120,256
121,208
120,128
120,208
121,176
121,256
120,144
120,112
120,144
121,176
121,240
120,176
120,160
120,192
122,208
120,272
120,144
121,144
120,176
121,240
121,272
120,176
120,128
121,192
121,224
120,256
121,160
120,160
120,176
121,144
121,240
121,112
120,192
120,160
121,160
121,208
120,160
120,176
121,208
120,208
121,320
120,128
120,272
121,192
120,176
120,208
122,208
120,128
120,96
121,176
120,304
121,128
120,176
120,176
121,208
120,208
121,208
120,160
121,224
120,160
120,272
121,208
121,112
120,112
121,160
120,272
122,176
119,160
121,112
120,208
121,240
120,208
120,176
122,112
120,160
120,288
121,192
120,176
121,176
120,144
121,288
120,192
120,208
121,208
121,224
120,224
121,128
120,240
120,160
121,192
120,224
120,144
121,208
121,176
120,240
120,176
121,128
120,144
120,128
122,208
120,272
120,144
121,112
120,192
121,224
121,240
120,144
120,144
120,176
122,192
120,192
120,160
121,160
120,192
121,208
121,208
120,144
120,144
120,144
121,176
121,256
120,176
120,192
120,176
121,176
121,192
120,224
120,144
121,208
120,208
121,240
121,160
120,176
120,176
120,224
121,208
121,80
120,176
120,128
120,208
122,208
120,176
120,176
120,208
121,208
121,224
120,192
120,176
121,240
122,176
119,256
121,208
121,176
120,144
120,192
121,256
121,144
120,128
120,176
120,160
121,208
121,176
120,144
121,192
120,176
120,256
121,144
121,160
120,80
121,208
120,208
120,160
121,160
121,96
120,160
120,192
121,144
121,224
120,176
121,240
120,240
120,128
121,144
121,160
120,192
120,240
121,160
120,144
121,80
121,176
120,240
121,144
120,112
122,192
120,192
120,224
121,208
120,128
121,208
120,208
120,176
120,144
121,176
121,112
120,208
120,208
121,176
120,240
120,144
122,176
120,192
120,112
121,144
120,240
121,192
120,256
120,176
121,176
120,160
121,240
120,224
121,208
120,192
120,176
121,160
120,240
120,112
121,192
120,160
120,176
122,144
120,160
123,160
118,192
120,160
121,256
121,144
120,144
121,144
120,208
120,288
122,160
120,112
120,176
120,144
121,224
121,128
120,176
121,160
120,176
120,288
121,160
121,144
120,224
120,240
120,208
122,144
120,128
120,160
120,192
120,272
122,160
120,192
120,160
120,208
121,304
121,192
120,112
121,224
120,224
120,288
121,160
121,144
121,80
120,208
120,256
121,96
121,160
120,128
120,144
121,272
120,192
121,176
120,144
120,208
121,208
120,128
121,176
121,160
120,224
120,240
120,160
121,176
121,144
120,240
121,208
120,128
120,160
122,176
120,176
121,304
120,208
120,208
121,208
121,192
120,256
120,160
121,192
120,192
122,176
120,256
120,144
121,80
120,144
121,176
122,192
119,144
120,160
121,192
120,240
121,240
120,96
120,112
121,160
120,192
121,256
121,176
120,144
120,208
121,224
121,240
120,176
121,160
120,128
120,176
121,320
121,160
120,144
121,176
120,160
120,240
122,112
120,176
120,128
121,160
120,240
121,160
120,192
121,144
120,208
120,240
122,160
120,160
120,144
121,144
120,192
121,208
121,176
120,128
120,208
120,224
121,160
121,160
120,144
120,224
120,224
121,144
121,176
120,128
120,128
121,256
120,160
121,144
121,144
120,192
120,240
121,192
120,176
121,144
120,176
121,208
120,176
120,176
121,144
121,208
120,224
120,176
121,192
121,144
120,160
120,176
121,160
120,160
121,160
121,192
120,176
121,160
120,160
122,112
119,144
121,176
120,160
120,224
120,192
121,240
121,336
120,224
120,304
120,304
122,320
120,528
120,432
120,416
120,528
121,496
121,720
120,560
121,592
120,688
120,688
121,704
121,704
120,720
120,704
121,784
121,784
121,784
120,800
120,768
120,832
122,896
120,832
120,880
121,880
120,864
121,912
121,896
120,880
121,896
120,928
121,1008
120,880
120,896
120,976
121,1008
120,1120
121,1008
120,992
121,1040
120,1056
120,1056
121,1088
121,1056
120,1104
120,1040
120,1120
122,1072
120,1104
120,1120
121,1152
120,1200
120,1184
122,1136
120,1104
120,1232
121,1248
120,1168
121,1216
121,1200
120,1264
120,1248
121,1216
121,1200
121,1248
120,1360
120,1328
121,1248
120,1264
122,1200
120,1344
120,1360
122,1296
119,1328
121,1328
120,1376
120,1440
121,1312
120,1376
120,1376
122,1408
120,1392
120,1360
120,1376
121,1360
121,1376
120,1488
120,1376
120,1392
121,1440
121,1392
120,1520
120,1392
120,1504
121,1424
121,1408
120,1504
121,1408
120,1440
120,1488
122,1520
120,1536
120,1456
121,1456
120,1440
121,1536
121,1568
120,1456
121,1472
120,1408
120,1472
122,1616
120,1472
120,1456
120,1536
121,1520
120,1584
121,1424
120,1504
120,1504
121,1472
121,1536
120,1408
121,1488
120,1440
120,1504
121,1520
121,1472
120,1440
120,1392
120,1488
121,1600
120,1440
121,1488
120,1488
120,1408
121,1520
120,1376
120,1440
120,1360
120,1392
121,1504
120,1296
121,1376
120,1392
120,1376
121,1456
120,1264
120,1296
120,1360
120,1264
121,1424
120,1280
120,1312
120,1280
122,1312
119,1264
120,1200
121,1200
120,1296
121,1184
120,1360
120,1216
120,1168
121,1136
120,1168
120,1248
120,1104
120,1120
121,1040
120,1104
121,1168
120,1024
120,1104
121,1024
120,1056
121,1088
120,1008
121,960
120,976
122,976
120,1040
120,912
120,912
120,944
122,976
120,1072
120,960
120,832
120,880
122,864
120,976
120,832
121,848
120,816
121,848
121,928
121,848
120,784
120,848
121,784
121,912
120,768
121,752
120,768
120,720
122,784
120,656
120,720
120,704
121,752
121,720
120,656
120,624
120,640
120,688
122,720
120,688
120,592
120,608
120,656
121,528
120,592
120,496
120,512
120,544
121,624
120,528
120,512
120,512
121,544
120,496
121,496
120,496
120,464
121,512
121,496
120,416
120,400
120,416
121,400
121,464
120,416
120,368
121,432
120,416
121,512
121,336
120,304
120,304
121,352
120,416
121,304
120,304
120,304
120,304
121,336
121,256
120,320
120,272
120,240
120,352
121,224
121,144
119,272
120,256
121,272
121,208
120,192
120,128
120,176
120,240
121,176
121,160
120,176
120,176
120,240
121,208
120,176
120,208
120,240
120,224
121,208
121,128
120,176
120,192
121,208
121,96
120,176
121,176
120,144
120,208
122,144
120,96
120,112
121,208
120,240
121,160
121,208
120,144
120,224
120,240
121,144
121,224
120,176
120,160
120,192
121,112
121,144
120,208
120,224
121,208
120,144
122,144
120,176
120,224
120,208
121,208
121,80
120,208
120,208
121,272
120,160
121,176
120,176
121,144
120,272
120,128
121,144
120,176
120,224
120,224
120,160
121,80
121,160
120,144
120,208
120,192
121,160
120,144
120,192
120,288
120,176
121,176
120,112
120,208
122,272
119,176
121,96
120,160
120,208
120,176
120,144
121,192
120,176
120,192
121,256
120,176
121,96
120,176
121,128
120,256
120,176
122,96
120,160
120,160
121,272
120,208
120,176
122,192
120,224
123,256
118,144
120,112
122,192
120,208
120,224
121,80
120,192
121,176
120,160
121,304
120,160
120,192
121,144
121,192
120,224
121,144
120,176
121,224
120,160
121,208
120,144
120,176
121,208
121,208
120,208
120,224
120,112
121,160
121,208
120,272
121,192
120,176
120,160
121,176
121,240
120,160
120,224
121,176
121,160
120,240
121,160
120,192
121,144
121,192
120,240
120,160
121,144
120,192
120,224
121,240
120,208
121,160
120,96
120,224
121,208
120,176
121,144
122,176
119,192
120,240
120,176
120,176
122,112
120,208
120,240
120,160
120,176
121,144
120,176
120,160
120,160
121,160
121,176
120,192
119,304
121,112
121,192
120,176
120,240
121,176
120,176
121,192
121,144
120,208
120,288
120,176
121,192
120,176
121,304
120,240
120,176
122,176
120,192
120,160
121,240
120,240
121,112
121,144
120,192
120,256
120,128
121,144
121,176
120,224
120,208
121,112
121,128
120,144
121,192
120,224
120,160
121,176
121,144
120,176
121,256
120,128
120,192
122,144
120,192
120,240
121,144
120,176
121,176
121,176
120,304
120,160
120,112
121,192
120,160
121,160
120,144
120,208
121,160
121,208
120,256
120,192
120,96
121,160
121,176
120,240
120,144
121,192
120,144
121,176
121,208
120,112
120,192
121,176
121,176
120,192
121,176
120,144
120,144
121,208
121,208
120,176
120,144
120,160
121,160
121,176
120,144
120,192
120,208
121,176
120,256
122,160
118,112
121,128
121,208
120,208
120,112
120,176
120,176
121,176
120,224
120,176
120,144
121,208
121,224
120,224
120,208
120,112
120,176
121,176
120,224
120,144
120,176
121,144
121,192
120,160
121,208
119,224
121,144
121,208
120,256
120,144
120,144
120,176
122,176
120,192
120,160
120,128
120,128
121,176
120,128
120,80
121,128
120,160
121,192
121,208
120,176
120,176
120,176
121,208
121,272
120,176
120,176
120,128
121,144
121,304
120,96
120,112
121,192
121,176
121,272
120,192
120,176
121,160
120,208
121,208
121,176
120,208
120,128
121,176
121,192
121,96
120,112
120,112
121,144
121,240
120,160
120,144
120,192
120,144
122,272
120,240
120,96
120,160
123,192
118,272
121,192
121,176
120,176
120,176
120,240
122,208
120,80
120,160
121,224
120,208
121,176
121,176
120,224
120,192
121,192
121,208
120,144
120,176
121,256
120,240
121,144
120,160
121,144
122,192
119,288
120,176
122,240
120,128
120,208
121,304
120,176
121,160
120,176
120,224
121,224
120,240
121,208
121,112
120,192
120,288
121,208
120,192
121,176
121,208
120,224
120,176
120,160
122,160
120,192
120,240
120,112
121,144
121,176
120,208
121,240
120,208
120,176
122,96
120,224
120,224
121,128
120,144
120,112
122,208
120,160
120,80
121,192
120,224
122,192
120,272
121,192
120,144
120,176
121,192
121,224
120,208
120,192
120,240
122,208
120,192
120,128
121,160
121,192
120,208
120,320
120,160
121,192
121,208
120,176
121,224
120,208
120,160
122,176
120,144
120,256
121,128
120,144
121,208
120,256
121,272
120,176
120,176
121,112
121,272
120,256
120,112
122,112
119,192
122,240
120,224
121,160
120,144
120,176
122,192
120,272
120,128
120,224
121,128
121,192
120,240
121,176
120,208
120,176
121,224
121,224
120,144
120,224
120,128
120,208
122,240
120,144
120,144
121,176
120,240
121,192
121,112
120,112
121,160
120,160
121,208
121,192
120,144
120,208
121,144
121,240
120,112
121,208
120,144
120,176
121,224
121,176
120,176
120,144
120,144
120,144
121,144
121,144
120,192
120,176
121,208
121,176
120,144
121,144
120,192
120,240
121,208
121,160
120,176
120,176
120,240
122,160
120,160
120,128
120,224
121,208
121,192
120,176
120,144
121,160
120,240
121,176
120,176
121,160
120,160
120,272
121,112
121,176
120,160
121,208
121,208
120,160
120,176
121,192
120,224
120,224
121,144
120,160
120,128
121,144
120,272
121,112
121,176
120,160
120,192
121,224
120,176
121,176
120,128
121,208
120,256
120,144
122,160
120,192
120,192
121,208
120,160
121,128
120,128
120,192
121,240
120,176
121,144
120,112
120,192
120,192
120,144
122,160
120,192
120,224
120,224
120,160
121,192
120,128
120,160
120,240
120,144
121,176
120,96
121,224
120,288
120,176
122,160
120,288
120,224
120,224
121,176
121,192
120,112
120,224
121,272
120,112
120,160
122,192
120,240
120,320
121,128
120,128
122,176
120,192
120,240
121,144
120,160
121,208
121,176
120,256
121,112
120,160
121,144
121,176
120,272
121,160
120,176
122,64
118,192
121,240
121,144
120,192
120,192
120,208
121,192
121,144
120,128
121,112
120,160
121,336
121,192
120,112
120,176
120,144
121,272
121,112
120,96
120,112
121,192
120,256
121,192
121,224
120,144
120,224
121,272
121,160
120,224
121,176
120,224
120,240
121,176
121,176
120,224
120,208
121,304
121,160
120,112
120,160
121,128
120,240
121,208
120,160
121,208
120,192
120,208
121,208
121,144
120,160
121,224
120,224
121,144
121,176
120,224
120,160
120,240
124,144
117,160
121,176
121,224
120,272
120,144
121,128
120,192
120,224
121,240
121,160
120,128
120,272
121,160
121,240
120,240
121,208
120,208
121,144
121,272
120,208
121,208
120,192
120,176
121,176
122,96
119,192
120,176
121,176
120,272
121,160
121,192
120,208
120,176
120,240
122,144
120,176
120,176
120,160
121,240
121,160
120,96
121,192
120,240
120,240
121,176
121,144
120,160
120,224
121,272
121,160
120,192
120,224
121,224
120,288
121,208
121,176
120,240
120,320
121,272
120,256
121,304
121,304
120,336
120,448
120,368
121,368
120,368
121,432
120,544
121,512
121,496
120,464
121,544
120,624
120,560
121,608
121,512
120,608
121,656
120,624
120,704
122,672
122,624
118,736
121,688
120,656
121,672
121,704
120,816
120,688
120,736
121,800
121,816
120,912
121,736
120,736
120,784
122,848
120,880
120,800
121,768
120,832
122,864
120,912
120,816
120,784
121,816
122,880
119,944
120,928
120,912
120,816
121,912
120,880
120,912
121,848
120,912
121,960
120,1008
120,928
120,896
120,976
121,960
120,1008
120,848
120,960
121,928
121,1008
120,1040
120,1008
120,960
121,992
121,992
120,1072
121,976
120,928
120,912
122,1072
120,1120
120,992
121,1040
120,1024
121,1024
120,1088
121,1040
120,1056
120,960
121,1072
121,1120
120,1024
120,1056
120,1056
120,1040
122,1104
120,1024
120,1072
120,1104
121,1040
121,1136
120,1056
120,1056
121,1040
120,1072
121,1200
121,1072
120,1008
120,992
121,1056
120,1104
121,1072
121,1056
120,1072
121,1088
120,1136
121,1072
121,1056
120,1072
120,1056
121,1152
121,1104
121,1088
120,1088
120,1072
120,1168
121,1056
121,1008
120,1072
120,1072
120,1072
122,1040
120,992
120,960
121,1072
120,1168
121,944
121,1040
120,992
120,1008
120,1056
121,944
121,1008
120,1008
120,976
121,1040
121,944
120,928
121,960
120,992
120,1008
122,880
120,960
120,944
120,992
121,1072
120,928
121,896
121,976
120,928
121,944
120,912
121,912
121,896
120,912
120,1024
120,848
122,816
120,912
120,864
120,944
120,864
121,816
120,800
120,864
120,816
120,784
122,736
120,800
120,800
120,880
121,736
121,784
120,800
121,752
120,720
120,752
121,736
121,736
120,752
120,816
121,688
120,624
121,704
121,720
120,720
120,672
121,656
121,688
120,656
121,688
120,592
120,592
121,640
121,688
120,624
120,544
120,640
121,592
121,544
120,656
120,560
121,528
121,560
120,560
122,640
119,544
120,576
120,576
121,560
121,576
120,512
120,464
121,528
121,528
120,592
121,416
120,496
121,416
121,480
120,560
121,400
120,464
120,416
121,432
121,496
120,432
120,416
121,496
120,384
121,400
121,352
120,400
121,336
120,368
121,368
120,320
120,288
121,304
120,368
121,432
121,272
120,272
120,224
121,352
121,432
120,208
120,208
121,240
120,224
120,272
122,192
120,208
120,224
121,192
120,336
121,272
120,176
120,176
121,176
120,320
121,272
121,240
120,176
120,240
121,272
120,176
121,144
121,160
120,176
120,272
121,144
121,160
120,96
121,160
120,224
120,80
121,176
120,96
121,224
120,224
120,112
121,144
121,176
120,176
120,240
120,160
122,112
121,128
119,192
120,288
121,192
121,144
120,96
120,176
121,240
120,144
121,224
121,208
120,176
120,224
121,128
120,192
121,144
121,224
120,304
120,208
121,192
121,176
120,192
121,304
120,144
120,192
122,160
120,208
120,208
120,128
120,192
122,112
120,176
120,128
121,208
120,64
121,176
121,160
120,240
120,176
120,160
122,96
120,160
120,208
120,208
120,144
121,176
120,256
120,288
120,112
120,160
121,176
120,192
120,256
120,208
121,208
121,192
120,160
120,288
120,192
120,160
121,144
121,144
120,256
120,240
120,208
121,160
120,144
120,224
120,144
121,160
121,176
120,176
120,224
121,160
120,208
121,112
120,192
121,336
120,112
120,144
122,160
120,224
120,208
123,208
118,144
122,160
120,192
120,192
121,176
120,144
121,192
120,160
121,288
120,224
120,256
121,144
121,144
120,240
120,160
121,96
120,176
121,176
120,272
121,176
120,192
119,128
121,224
120,176
122,208
118,160
121,176
121,224
120,304
120,144
120,176
120,144
121,240
119,240
120,128
120,192
122,208
120,208
120,272
120,160
120,160
121,208
120,192
120,208
120,176
120,208
121,144
121,160
120,208
120,224
120,176
121,176
120,192
120,208
120,128
121,192
120,160
120,176
120,208
120,160
121,144
121,176
120,192
120,240
120,176
121,176
120,128
120,208
120,176
120,176
122,160
120,192
120,224
120,240
120,128
121,176
121,144
120,192
120,256
121,144
121,112
120,112
121,240
120,320
120,192
121,144
121,144
120,240
121,256
120,224
121,176
121,208
121,224
120,240
120,144
120,160
121,160
120,160
121,256
120,160
121,144
120,176
121,192
120,272
120,144
121,160
121,128
122,160
119,272
120,224
120,192
120,240
122,208
120,256
120,160
120,96
121,144
121,256
121,256
120,176
120,160
120,144
121,224
121,240
120,144
120,128
121,128
120,224
121,272
121,144
120,224
121,144
120,176
121,144
121,144
120,176
120,176
120,208
121,208
121,208
120,160
120,144
120,256
121,288
121,176
120,96
120,144
121,208
120,208
121,208
121,144
120,176
120,192
120,224
122,128
120,112
120,160
120,144
121,240
121,144
120,128
121,128
120,160
120,256
121,176
121,176
120,160
121,224
120,208
121,128
121,256
120,192
121,176
120,224
120,144
121,160
120,96
120,192
120,176
120,160
121,112
120,96
120,144
120,224
121,112
120,128
121,160
120,208
120,240
121,112
121,144
119,128
120,224
120,272
121,144
121,112
120,176
121,176
120,272
120,160
121,144
121,192
120,240
120,240
121,144
120,144
122,176
120,224
120,240
121,176
120,192
122,240
120,160
120,192
120,160
123,176
119,208
120,208
120,304
121,176
120,160
121,176
120,224
121,240
120,176
120,144
121,144
121,208
120,256
121,144
120,208
120,192
122,208
120,256
120,112
120,144
121,224
121,208
121,272
120,112
120,160
121,176
121,224
120,224
120,176
121,176
120,176
120,176
122,208
120,208
121,160
120,176
120,224
122,272
120,128
120,208
120,80
120,160
122,144
120,160
120,192
121,176
120,96
121,240
120,96
121,192
120,112
120,208
121,224
121,192
120,144
120,192
121,144
121,208
121,96
120,128
120,160
121,160
120,240
122,112
120,160
120,96
121,192
120,192
121,128
121,144
120,176
120,192
121,224
120,176
121,176
121,208
120,240
120,208
121,144
121,176
120,112
120,144
121,224
120,192
121,176
120,144
120,192
120,320
120,128
121,208
120,208
120,144
120,224
120,176
121,128
120,112
120,208
121,208
120,112
121,144
120,192
120,176
120,224
121,48
121,144
120,160
121,208
120,240
120,224
122,192
120,208
121,192
120,208
120,160
122,208
120,240
120,272
120,272
121,224
121,272
120,192
120,304
120,352
121,192
121,240
120,208
121,304
120,336
121,256
120,240
121,304
120,288
121,288
120,304
120,336
121,336
121,320
120,480
120,288
121,352
122,368
120,400
120,512
121,432
120,352
120,400
122,512
120,528
120,400
121,512
120,448
121,512
121,592
120,480
121,560
120,528
120,528
121,624
121,560
120,528
120,576
120,656
121,656
120,544
121,592
122,672
118,624
122,720
120,656
120,592
120,640
121,624
120,752
121,640
120,592
121,704
120,688
121,784
120,672
121,640
120,720
121,736
120,784
121,752
120,688
121,656
120,768
120,752
121,736
121,688
120,752
120,736
121,816
121,720
120,768
121,752
120,800
120,816
121,736
121,816
120,752
120,816
120,864
121,752
121,752
120,832
120,816
121,800
120,752
121,736
121,736
120,768
120,864
120,784
121,720
121,720
120,816
120,816
121,736
121,848
121,784
120,800
120,784
123,848
118,800
121,736
121,784
120,960
120,720
121,816
121,752
121,784
120,1024
120,784
121,816
121,800
120,800
121,816
120,912
120,752
121,704
120,832
121,848
120,768
120,848
121,816
120,832
120,864
122,800
118,752
120,816
121,816
120,880
120,784
120,784
121,736
121,848
120,832
121,816
120,752
120,736
122,784
120,864
120,768
120,720
121,800
120,768
121,800
120,768
120,704
120,784
121,784
120,784
121,736
120,736
120,752
120,752
120,784
120,720
120,672
122,688
120,784
120,800
120,736
120,672
121,688
120,688
120,688
120,640
120,688
121,704
120,688
120,704
120,688
120,640
121,624
120,656
120,752
121,608
120,656
121,640
120,656
120,640
120,576
121,688
120,592
120,640
121,640
120,624
121,624
120,576
121,608
120,640
120,560
120,576
121,544
121,592
120,656
120,608
121,528
121,528
120,528
121,560
120,480
120,512
121,480
120,560
121,592
120,480
120,496
121,496
122,512
119,512
120,496
121,432
120,496
121,480
121,480
120,432
120,448
121,480
120,480
122,448
120,416
120,368
121,384
120,448
121,480
121,336
120,352
120,304
121,448
121,448
120,368
120,352
120,336
123,384
119,480
120,352
120,320
121,288
120,368
121,384
121,320
120,352
120,256
120,272
120,352
121,320
120,272
121,272
120,320
120,336
121,240
121,208
120,240
120,240
121,368
121,224
120,192
121,208
120,336
121,304
121,208
120,240
121,224
120,192
121,288
120,192
122,224
120,272
120,240
121,272
120,240
121,176
120,176
120,192
121,272
120,224
121,176
120,224
121,208
120,272
120,208
122,208
120,176
120,256
121,176
120,128
121,176
120,176
121,240
120,208
120,176
122,176
120,176
120,240
120,224
121,176
120,160
121,144
120,224
121,192
120,144
120,176
122,240
120,192
121,176
120,224
121,128
120,224
121,208
120,256
121,128
120,176
120,208
121,192
120,272
121,144
122,160
118,144
122,192
120,224
120,176
120,176
121,128
121,176
120,240
120,192
120,96
121,208
121,192
120,224
121,144
120,208
120,128
121,224
121,208
120,208
120,176
121,128
120,224
121,208
121,96
120,144
121,128
120,160
121,224
121,160
120,176
121,192
120,208
120,240
122,112
120,160
120,112
121,192
120,224
121,128
120,192
121,144
120,208
120,240
121,96
120,144
120,240
120,144
121,224
121,240
120,160
120,176
120,208
120,272
121,176
120,128
121,160
120,176
123,208
118,208
120,160
121,224
121,192
120,208
120,144
121,208
120,176
121,160
120,256
121,144
120,160
121,208
120,224
121,224
120,160
120,160
121,144
121,176
120,272
120,208
120,144
121,176
121,192
122,160
118,176
120,128
120,144
121,240
121,240
120,144
120,192
120,208
122,240
120,224
120,192
120,144
121,112
121,208
120,240
121,144
120,160
120,160
121,176
121,208
120,176
120,176
121,240
120,192
121,272
121,144
120,144
121,176
120,192
121,256
120,112
121,176
120,192
120,240
121,224
120,176
121,160
120,256
121,192
120,256
121,128
120,192
121,112
120,224
120,272
122,208
120,192
120,224
120,192
120,256
122,144
120,128
120,176
121,224
120,208
121,160
121,176
120,128
120,160
120,192
121,144
121,208
120,112
120,208
120,256
121,112
120,176
120,128
120,144
120,288
121,144
120,208
120,112
120,240
121,336
120,208
120,208
120,208
120,192
121,240
121,224
120,144
121,144
119,224
120,320
120,208
120,192
121,208
121,224
120,240
120,208
120,144
122,208
120,256
120,224
120,208
121,176
121,176
120,240
121,336
120,208
120,272
121,160
121,272
121,304
120,176
120,256
121,176
121,240
120,336
120,272
120,272
120,256
121,256
120,368
120,128
120,224
120,224
122,320
120,336
120,240
121,256
120,256
121,304
120,352
121,224
120,304
120,272
121,320
121,400
120,352
120,288
121,272
121,368
120,448
120,336
121,336
120,352
121,416
121,336
120,320
120,336
121,400
120,400
121,368
120,336
120,400
121,336
120,368
121,464
120,368
121,368
120,368
120,448
122,464
120,432
120,432
120,400
121,528
121,528
120,416
121,432
120,496
120,496
121,528
121,448
120,432
120,464
121,560
120,592
121,528
121,528
120,528
120,544
121,528
120,560
121,576
121,544
120,528
120,560
121,592
121,528
120,528
121,576
120,624
120,560
121,560
120,496
121,592
120,608
122,544
119,608
121,560
120,624
120,688
120,576
122,592
120,544
120,560
120,656
121,608
121,576
120,592
120,528
121,672
120,592
121,576
120,608
121,640
120,592
121,560
120,608
121,592
120,624
121,688
120,608
120,592
122,576
120,640
120,624
121,560
120,624
121,576
121,656
120,720
120,624
120,608
121,640
121,656
120,704
120,624
120,624
122,576
120,624
120,656
120,640
121,656
121,624
120,608
121,768
120,576
120,592
121,576
120,656
121,656
120,624
120,624
121,592
122,592
119,672
120,608
121,608
120,560
121,576
121,752
120,640
120,560
121,512
120,640
122,624
120,624
121,640
120,608
120,608
122,656
120,592
120,560
120,592
121,608
121,720
120,640
120,528
121,544
122,576
119,624
121,544
120,512
120,560
120,576
121,528
121,576
120,544
120,528
120,528
121,624
121,512
120,448
121,576
120,576
120,672
121,592
121,528
120,544
120,496
121,544
121,496
120,512
121,528
120,496
121,544
121,496
121,496
120,464
120,496
121,560
120,464
121,512
120,464
121,448
120,496
120,416
121,368
120,400
121,480
120,496
120,400
122,416
120,416
120,464
120,432
121,448
121,416
120,432
120,352
121,480
120,336
121,416
120,448
121,384
120,416
120,384
122,416
120,384
120,432
120,416
121,336
120,384
122,352
120,368
120,432
121,384
120,352
121,352
121,368
120,448
120,320
120,288
122,304
120,336
120,336
120,288
121,304
121,304
120,304
120,368
121,288
122,336
119,272
120,304
121,336
120,240
120,272
121,304
120,304
121,336
120,240
120,304
121,240
121,304
120,256
121,272
120,272
120,304
121,272
121,384
120,208
120,256
121,240
121,256
120,320
121,208
120,240
120,208
121,208
121,304
120,224
120,208
120,224
121,272
120,240
121,208
120,192
120,192
121,224
121,336
120,320
120,224
121,224
120,272
121,288
121,304
120,272
120,208
120,240
121,320
121,176
120,208
120,192
120,240
122,304
120,224
120,192
121,224
120,240
122,304
119,176
121,224
120,240
120,192
120,320
122,240
120,240
121,176
120,192
120,272
122,208
120,224
120,160
121,224
120,240
121,224
120,256
120,208
121,240
120,256
121,192
121,160
120,176
121,176
122,272
118,240
121,128
121,176
120,272
120,256
120,160
121,224
121,112
120,192
120,352
121,144
121,208
120,128
121,176
120,272
120,192
120,208
122,240
120,224
120,256
121,208
120,112
121,192
121,288
120,272
121,208
120,208
121,176
120,192
121,256
120,224
120,224
121,240
121,256
120,320
120,208
121,208
120,256
121,304
120,240
121,208
120,224
120,224
121,272
121,288
121,208
119,240
120,192
122,224
120,288
120,224
120,240
121,240
121,224
120,336
121,240
120,192
123,256
118,224
120,352
121,192
121,208
120,192
121,240
120,336
